<?xml version="1.0" encoding="UTF-8"?>
<svg version="1.1" viewBox="0 0 1238.3 1082.9" xmlns="http://www.w3.org/2000/svg">
 <defs>
  <linearGradient id="linear-gradient" x1="790.23" x2="790.23" y1="202.65" y2="1375.4" gradientTransform="scale(1.1045 .90536)" gradientUnits="userSpaceOnUse">
   <stop stop-color="#38ff00" offset="0"/>
   <stop stop-color="#023400" offset="1"/>
  </linearGradient>
  <clipPath id="clip-path">
   <path transform="translate(-225.2 -183.47)" d="m1121.2 521.26c-229.39-120.22-337.66-489.56-691.79-268.85-318.71 198.64-231.64 585.79 36.257 741.14-0.86 4.508 57.633 222.81 60.08 224.22 339.36 109.67 811.7-133.82 934.56-337.54 209.94-348.12-185.23-278.32-339.11-358.96z" fill="none" data-name="Path 1507"/>
  </clipPath>
  <linearGradient id="linear-gradient-2" x1="792.75" x2="887.83" y1="503.05" y2="1226.7" gradientTransform="scale(1.2907 .77479)" gradientUnits="userSpaceOnUse">
   <stop stop-color="#0aad03" offset="0"/>
   <stop stop-color="#049b00" offset="1"/>
  </linearGradient>
  <linearGradient id="linear-gradient-3" x1="477.09" x2="477.09" y1="218.38" y2="450.12" gradientTransform="scale(.91059 1.0982)" gradientUnits="userSpaceOnUse">
   <stop stop-color="#8a8a8a" offset="0"/>
   <stop stop-color="#1a1a1a" offset="1"/>
  </linearGradient>
  <linearGradient id="linear-gradient-4" x1="47.716" x2="26.895" y1="12.424" y2="71.057" gradientTransform="scale(.9295 1.0758)" gradientUnits="userSpaceOnUse">
   <stop stop-color="#ffaf84" offset="0"/>
   <stop stop-color="#ed9169" offset="1"/>
  </linearGradient>
  <linearGradient id="linear-gradient-5" x1="18.71" x2="32.833" y1=".72043" y2="53.575" gradientTransform="scale(1.1801 .84737)" gradientUnits="userSpaceOnUse">
   <stop stop-color="#023000" offset="0"/>
   <stop stop-color="#047a00" offset="1"/>
  </linearGradient>
  <linearGradient id="linear-gradient-6" x1="26.487" x2="16.39" y1="27.93" y2="1.9682e-5" gradientTransform="scale(1.0115 .98858)" gradientUnits="userSpaceOnUse">
   <stop stop-color="#054d02" offset="0"/>
   <stop stop-color="#010f00" offset="1"/>
  </linearGradient>
  <linearGradient id="linear-gradient-7" x1="21.601" x2="15.671" y1="29.951" y2="7.654" gradientTransform="scale(.87028 1.1491)" gradientUnits="userSpaceOnUse">
   <stop stop-color="#049100" offset="0"/>
   <stop stop-color="#022600" offset="1"/>
  </linearGradient>
  <linearGradient id="linear-gradient-8" x1="6.4495" x2="15.64" y1="36.493" y2="9.1366" gradientTransform="scale(.81568 1.226)" gradientUnits="userSpaceOnUse">
   <stop stop-color="#04a200" offset="0"/>
   <stop stop-color="#023b00" offset="1"/>
  </linearGradient>
  <linearGradient id="linear-gradient-9" x1="11.593" x2="94.38" y1="-16.042" y2="117.1" gradientTransform="scale(1.1015 .90784)" gradientUnits="userSpaceOnUse">
   <stop stop-color="#022600" offset="0"/>
   <stop stop-color="#078502" offset="1"/>
  </linearGradient>
  <linearGradient id="linear-gradient-10" x1="32.104" x2="106.2" y1="68.925" y2="141.35" gradientTransform="scale(.85009 1.1763)" gradientUnits="userSpaceOnUse">
   <stop stop-color="#033d00" offset="0"/>
   <stop stop-color="#0aad03" offset="1"/>
  </linearGradient>
  <linearGradient id="linear-gradient-11" x1="-93.4" x2="58.626" y1="78.743" y2=".63687" gradientTransform="scale(.83287 1.2007)" gradientUnits="userSpaceOnUse">
   <stop stop-color="#09dc00" offset="0"/>
   <stop stop-color="#055702" offset="1"/>
  </linearGradient>
  <linearGradient id="linear-gradient-12" x1="81.589" x2="12.961" y1="1.6998" y2="104.11" gradientTransform="scale(.45532 2.1963)" gradientUnits="userSpaceOnUse">
   <stop stop-color="#034100" offset="0"/>
   <stop stop-color="#28b800" offset="1"/>
  </linearGradient>
  <linearGradient id="linear-gradient-13" x1="-19.652" x2="157.72" y1="-52.902" y2="157.23" gradientTransform="scale(1.063 .94071)" gradientUnits="userSpaceOnUse">
   <stop stop-color="#022101" offset="0"/>
   <stop stop-color="#0aad03" offset="1"/>
  </linearGradient>
  <linearGradient id="linear-gradient-14" x1="156.18" x2="56.385" y1="181.88" y2="92.063" gradientTransform="scale(.89983 1.1113)" gradientUnits="userSpaceOnUse">
   <stop stop-color="#0aad03" offset="0"/>
   <stop stop-color="#057a00" offset="1"/>
  </linearGradient>
  <linearGradient id="linear-gradient-15" x1="53.267" x2="92.861" y1="27.109" y2="117.35" gradientTransform="scale(1.197 .83543)" gradientUnits="userSpaceOnUse">
   <stop stop-color="#057700" offset="0"/>
   <stop stop-color="#07b900" offset="1"/>
  </linearGradient>
  <linearGradient id="linear-gradient-16" x1="-10.822" x2="183.63" y1="43.288" y2="136.5" gradientTransform="scale(1.2138 .82387)" gradientUnits="userSpaceOnUse">
   <stop stop-color="#011900" offset="0"/>
   <stop stop-color="#0fd40a" offset=".483"/>
   <stop stop-color="#0aad03" offset="1"/>
  </linearGradient>
  <linearGradient id="linear-gradient-17" x1="78.926" x2="77.322" y1="114.29" y2="45.254" gradientTransform="scale(.99693 1.0031)" gradientUnits="userSpaceOnUse">
   <stop stop-color="#8d132a" offset="0"/>
   <stop stop-color="#ed1f45" offset="1"/>
  </linearGradient>
  <linearGradient id="linear-gradient-18" x1="50.588" x2="50.588" y1="68.426" y2="101.24" gradientTransform="scale(1.3088 .76403)" gradientUnits="userSpaceOnUse">
   <stop stop-color="#bc1937" offset="0"/>
   <stop stop-color="#ed1f45" offset="1"/>
  </linearGradient>
 </defs>
 <g transform="translate(-262.16 108.19)" data-name="Group 148">
  <g transform="translate(185.19 167.09)" data-name="Group 147">
   <g data-name="Group 146">
    <path transform="matrix(-.966 -.259 .259 -.966 1364.7 1139.4)" d="m1121.2 521.26c-229.39-120.22-337.66-489.56-691.79-268.85-318.35 198.42-231.84 584.93 35.283 740.57-0.4 3.143 26.009 213.92 60.287 224.99 339.36 109.67 812.46-134.02 935.33-337.75 209.94-348.12-185.23-278.32-339.11-358.96z" fill="url(#linear-gradient)" data-name="Path 1505"/>
    <g transform="matrix(-.966 -.259 .259 -.966 1194.6 903.84)" data-name="Group 116">
     <g clip-path="url(#clip-path)" data-name="Group 115">
      <path transform="translate(-254.51 31.024)" d="m334.66 675.14s80.978-111.18 407.7-30.461 519.09 11.519 478.53-416.22c0 0 459.22 55.564 400.35 338.55-38.084 183.04-317.88 305.75-632.63 333.9-1.013 0.967-436.34 107.26-435.44 102.88-2.963-3.344-216.57-329.16-218.5-328.64z" fill="url(#linear-gradient-2)" data-name="Path 1506"/>
     </g>
    </g>
    <g transform="translate(117.64 95)" data-name="Group 123">
     <g data-name="Group 117">
      <path transform="translate(-214.12 -190.45)" d="m500.07 208.69v116.97a18.246 18.246 0 0 1-18.273 18.237h-249.41a18.246 18.246 0 0 1-18.273-18.236v-116.97a18.246 18.246 0 0 1 18.273-18.236h249.41a18.246 18.246 0 0 1 18.273 18.236z" fill="#fff" data-name="Path 1508"/>
     </g>
     <g data-name="Group 119">
      <path transform="translate(-214.12 -190.45)" d="m500.07 208.69v10.123h-285.96v-10.123a18.246 18.246 0 0 1 18.273-18.236h249.41a18.246 18.246 0 0 1 18.273 18.236z" fill="#d6d6d6" data-name="Path 1509"/>
      <g transform="translate(12.286,11.697)" data-name="Group 118">
       <circle cx="3.832" cy="3.832" r="3.832" fill="#ed1f45" data-name="Ellipse 20"/>
       <path transform="translate(-205.58 -193.33)" d="m228.57 197.16a3.831 3.831 0 1 1-3.831-3.831 3.831 3.831 0 0 1 3.831 3.831z" fill="#ffc400" data-name="Path 1510"/>
       <path transform="translate(-194.01 -193.33)" d="m232.34 197.16a3.831 3.831 0 1 1-3.831-3.831 3.833 3.833 0 0 1 3.831 3.831z" fill="#0aad03" data-name="Path 1511"/>
      </g>
     </g>
     <path transform="translate(35.474,45.314)" d="m0.834 0h101.53a0.834 0.834 0 0 1 0.834 0.834v55.586a0.834 0.834 0 0 1-0.834 0.834h-101.53a0.835 0.835 0 0 1-0.835-0.834v-55.586a0.834 0.834 0 0 1 0.834-0.834z" fill="#0fd40a" data-name="Rectangle 53"/>
     <g transform="translate(35.475 119.41)" data-name="Group 120">
      <path transform="translate(-221.85 -218.83)" d="m432.86 226.9h-207.05a4 4 0 0 1-3.964-4.034 4 4 0 0 1 3.964-4.034h207.05a4 4 0 0 1 3.964 4.034 4 4 0 0 1-3.964 4.034z" fill="#cfcfcf" data-name="Path 1512"/>
     </g>
     <g transform="translate(156.35 94.939)" data-name="Group 121">
      <path transform="translate(-242.25 -211.34)" d="m333.55 219.41h-88.513c-1.542 0-2.791-1.81-2.791-4.039s1.249-4.034 2.791-4.034h88.514c1.542 0 2.794 1.806 2.794 4.034-1e-3 2.231-1.249 4.039-2.795 4.039z" fill="#cfcfcf" data-name="Path 1513"/>
     </g>
     <g transform="translate(156.35 70.303)" data-name="Group 122">
      <path transform="translate(-242.25 -204.29)" d="m332 212.37h-85.4a4.2 4.2 0 0 1-4.347-4.034 4.2 4.2 0 0 1 4.347-4.038h85.4a4.2 4.2 0 0 1 4.347 4.038 4.2 4.2 0 0 1-4.347 4.034z" fill="#cfcfcf" data-name="Path 1514"/>
     </g>
     <g transform="translate(156.35 45.303)" data-name="Group 149">
      <path transform="translate(-242.25 -204.29)" d="m332 212.37h-85.4a4.2 4.2 0 0 1-4.347-4.034 4.2 4.2 0 0 1 4.347-4.038h85.4a4.2 4.2 0 0 1 4.347 4.038 4.2 4.2 0 0 1-4.347 4.034z" fill="#cfcfcf" data-name="Path 1514"/>
     </g>
    </g>
    <g transform="translate(497.71)" data-name="Group 128">
     <path transform="translate(-314.94 -167.09)" d="m326.67 254.63 0.389 29.343 29.341-29.343z" fill="#fff" data-name="Path 1521"/>
     <rect transform="translate(.411 1.314)" width="142.2" height="87.254" rx="5" fill="#fff" data-name="Rectangle 67"/>
     <g transform="translate(24.475,39.232)" data-name="Group 126">
      <path transform="translate(-320.96 -177.72)" d="m324.87 177.72h51.606a3.914 3.914 0 0 1 3.912 3.912 3.914 3.914 0 0 1-3.912 3.913h-51.606a3.911 3.911 0 0 1-3.908-3.913 3.911 3.911 0 0 1 3.908-3.912z" fill="#cfcfcf" data-name="Path 1523"/>
     </g>
     <g transform="translate(24.475,58.232)" data-name="Group 150">
      <path transform="translate(-320.96 -177.72)" d="m324.87 177.72h51.606a3.914 3.914 0 0 1 3.912 3.912 3.914 3.914 0 0 1-3.912 3.913h-51.606a3.911 3.911 0 0 1-3.908-3.913 3.911 3.911 0 0 1 3.908-3.912z" fill="#cfcfcf" data-name="Path 1523"/>
     </g>
     <g transform="translate(24.475,20.19)" data-name="Group 127">
      <path transform="translate(-320.96 -173.04)" d="m324.87 173.04h88.717a3.914 3.914 0 0 1 3.913 3.912 3.914 3.914 0 0 1-3.913 3.912h-88.717a3.91 3.91 0 0 1-3.908-3.912 3.91 3.91 0 0 1 3.908-3.912z" fill="#cfcfcf" data-name="Path 1524"/>
     </g>
     <path transform="translate(94.411,38.314)" d="m0.834 0h24.534a0.834 0.834 0 0 1 0.832 0.834v26.586a0.834 0.834 0 0 1-0.834 0.834h-24.531a0.835 0.835 0 0 1-0.835-0.834v-26.586a0.834 0.834 0 0 1 0.834-0.834z" fill="#0fd40a" data-name="Rectangle 61"/>
    </g>
    <g transform="translate(584.55 295.78)" data-name="Group 129">
     <path transform="translate(-328.92 -239.82)" d="m328.92 494.32h137.45a54.079 54.079 0 0 0 53.753-48.181l19.822-206.32h-137.38l-2.806 119.63z" fill="url(#linear-gradient-3)" data-name="Path 1525"/>
     <path transform="translate(-328.92 -239.82)" d="m328.92 494.32h137.45a54.079 54.079 0 0 0 53.753-48.181l19.822-206.32" fill="none" stroke="#123833" stroke-linecap="round" stroke-linejoin="round" stroke-width="2.653" data-name="Path 1526"/>
     <path transform="translate(79.447 255.22)" d="m0 0h16l0.016 175.31s-3.4-3.312-7.406-7.578-8.61-9.485-8.61-9.485z" fill="#123833" data-name="Path 1699"/>
    </g>
    <g transform="translate(246.01 155.26)" data-name="Group 140">
     <path transform="translate(172.65 268.3)" d="m0.444 0v324.52" fill="none" stroke="#3d415b" stroke-width="16" data-name="Path 1557"/>
     <rect id="Table_side_dark" transform="rotate(180 192.54 136.15)" width="173.09" height="9.892" fill="#3d415b" data-name="Table side dark"/>
     <rect id="Table_side_light" transform="rotate(180 106.04 136.15)" width="209.09" height="9.892" fill="#676d94" data-name="Table side light"/>
     <path transform="translate(29.934 226.19)" d="m360.9 345.95 4.7 16.854-22.894 6.938-7.164-20.813z" fill="#ffaf84" data-name="Path 1527"/>
     <path transform="translate(-55.186 216.97)" d="m307.79 342.94v13.535h20.271l2.263-13.535z" fill="#ffaf84" data-name="Path 1528"/>
     <g transform="translate(245.44 122.51)" data-name="Group 132">
      <g transform="translate(0,20.651)" fill="#ed9169" data-name="Group 130">
       <path transform="translate(-285.45 -240.47)" d="m448.31 265.65-30.612 75.572-0.679 1.68a11.556 11.556 0 0 1-10.757 7.19l-87.183-0.622a6.385 6.385 0 0 1-0.878-12.7l86.273-12.6-11.436 8.87 20.607-78.9a18.302 18.302 0 0 1 35.415 9.252 19.65 19.65 0 0 1-0.75 2.258z" data-name="Path 1529"/>
       <path transform="translate(-306.03 -169.45)" d="m349.13 264.24-29.77-0.618c-7.361 0-13.327 6.645-13.327 14.845h43.476z" data-name="Path 1530"/>
      </g>
      <g transform="translate(114.66,4)" data-name="Group 131">
       <path transform="translate(-334.22 -235.39)" d="m334.22 290.42 47.669 11.64 7.821-42.484a20.581 20.581 0 0 0-17.537-23.963 20.952 20.952 0 0 0-22.71 13.344z" fill="#fff" data-name="Path 1531"/>
      </g>
     </g>
     <path transform="translate(-63.579,-9.083)" d="m473.56 274.26-147.47 69.508a38.419 38.419 0 0 0-20.969 36.513l11.062 188.7h22.535l30.4-201.9 114.94-75.259z" fill="#2b3f40" data-name="Path 1532"/>
     <path transform="translate(12.919 -205.27)" d="m370.55 207.69s40.812-13.876 62.257 24.776a38.757 38.757 0 0 0 4.27 6.365c4.356 5.145 13.433 14.617 23.446 17.687 39.718 12.185 64.856 87.293-14.21 93.979-98.941 8.362-127.04-11.148-112.88-50.589 10.1-28.131 1.082-48.1 1.082-48.1z" fill="#3c2828" data-name="Path 1533"/>
     <path id="Body_woman" transform="translate(36.698 -127.42)" d="m379.35 230.65-21.12 9.4a34.445 34.445 0 0 0-20.477 31.869c0.325 27.729 6.617 96.578 30.043 122.92h71.4c11.058-48.779 4.689-123.75 4.689-123.75a35.309 35.309 0 0 0-31.067-36.424z" fill="#fff" data-name="Body woman"/>
     <path transform="translate(36.698 -127.42)" d="m410.32 394.84h28.884c11.058-48.779 4.689-123.75 4.689-123.75a35.309 35.309 0 0 0-31.067-36.424s-20.341-2.356-20.31-2.444c0.011 0 11.906 2.688 8.341 19.063-0.06 0 18.6 49.009 18.3 68.3a400.4 400.4 0 0 1-8.837 75.251z" fill="#f2f0ed" data-name="Body woman"/>
     <g transform="translate(338.85 2.424)" data-name="Group 135">
      <g data-name="Group 134">
       <g transform="translate(13.44,23.578)" data-name="Group 133">
        <path transform="translate(-298.54 -181.82)" d="m364.26 281.78a13.676 13.676 0 0 1-15.141-11.847l-5.808-45.383 27.163-3.156 5.767 45.066a13.676 13.676 0 0 1-11.981 15.32z" fill="#ed9169" data-name="Path 1535"/>
        <path transform="matrix(.992 -.129 .129 .992 0 8.698)" d="m33.6 0a33.6 33.6 0 0 1 33.6 33.6v5.731c0 18.557-17.746 38.36-36.3 38.36s-30.9-19.802-30.9-38.359l0.4-21.592c4.648-20.149 14.644-17.74 33.2-17.74z" fill="url(#linear-gradient-4)" data-name="Path 1556"/>
       </g>
       <path transform="translate(-329 -205.86)" d="m422.13 284.68-6.5-10s-12.489-2.529-14.633-19.016c-1.818-13.962-11.949-11.538-11.949-11.538s-34.724 26.273-55.124 8.244c-16.1-14.226 9.919-40.263 39.689-46.506l39.044 17.057z" fill="#3c2828" data-name="Path 1536"/>
      </g>
      <path transform="translate(-299.05 -138.76)" d="m336.48 228.79 18.7-3.978s0.9 8.126-9.342 9.59c-8.081 1.16-9.358-5.612-9.358-5.612z" fill="#fff" data-name="Path 1539"/>
     </g>
     <path transform="translate(-38.193,-3.605)" d="m514.09 271.02h-71.4l-114.23 69.016a31.315 31.315 0 0 0-12.469 39.413l87.684 199.28 25.353-2.985-47.126-192.3c39.551-1.667 113-7.646 132.19-29.034 32.476-36.2-3e-3 -83.389-3e-3 -83.389z" fill="#3d5a5b" data-name="Path 1540"/>
     <g transform="translate(102.73 142.37)" data-name="Group 136">
      <path transform="translate(-270.94 -240.27)" d="m400.59 240.27 40.739 109.49h-132.41l-37.688-103.13a4.727 4.727 0 0 1 4.441-6.353z" fill="#b4b4b4" data-name="Path 1541"/>
      <path transform="translate(-173.17 -240.27)" d="m302.82 240.27h1.336a8.122 8.122 0 0 1 7.626 5.315l38.419 104.17h-6.64z" fill="#9e9e9e" data-name="Path 1542"/>
      <path transform="translate(38.347 109.49)" d="m0 0h132.04v10.549h-129.69a2.35 2.35 0 0 1-2.35-2.349z" fill="#9d9d9d" data-name="Rectangle 56"/>
      <path transform="translate(-142.45 -157.71)" d="m312.84 277.74h81.714a5.274 5.274 0 0 0 5.275-5.275 5.277 5.277 0 0 0-5.275-5.275h-81.714z" fill="#757575" data-name="Path 1543"/>
      <path transform="translate(-215.87 -207.13)" d="m312.35 261.55c2.505 7.565-0.516 15.373-6.751 17.435s-13.315-2.4-15.82-9.96 0.516-15.373 6.751-17.435 13.315 2.395 15.82 9.96z" fill="#ecf2f5" data-name="Path 1544"/>
     </g>
     <g transform="translate(301.12,119.74)" data-name="Group 139">
      <g transform="translate(0,21.223)" fill="#ffaf84" data-name="Group 137">
       <path transform="translate(-299.18 -239.93)" d="m462.23 265.24-30.673 77.02-0.675 1.7a11.655 11.655 0 0 1-10.871 7.321l-87.2-0.574a6.442 6.442 0 0 1-0.9-12.815l86.252-12.77-11.546 9.02 20.554-80.318a18.471 18.471 0 1 1 35.789 9.159 20.594 20.594 0 0 1-0.73 2.257z" data-name="Path 1545"/>
       <path transform="translate(-319.72 -167.73)" d="m362.82 264.09-29.77-0.626c-7.361 0-13.327 6.768-13.327 15.117h43.478z" data-name="Path 1546"/>
      </g>
      <g transform="translate(114.66)" data-name="Group 138">
       <path transform="translate(-347.91 -234.71)" d="m347.91 290.76 47.669 11.855 7.821-43.277a20.913 20.913 0 0 0-17.537-24.406 20.912 20.912 0 0 0-22.71 13.592z" fill="#fff" data-name="Path 1547"/>
      </g>
     </g>
     <path transform="translate(-8.359 230.22)" d="m366.14 349.54-11.119 10.981-25 6.08a7.838 7.838 0 0 0-5.535 5.014l-1.269 3.62a2.729 2.729 0 0 0 2.631 3.632l80.449-1.956a4.544 4.544 0 0 0 4.441-4.916l-6.341-22.791-12.156 2.908a14.927 14.927 0 0 1-12.217-1.265l-4.323-2.517a7.928 7.928 0 0 0-9.561 1.21z" fill="#171c23" data-name="Path 1548"/>
     <path transform="translate(-95.436 218.3)" d="m337.75 345.66-11.123 10.981-24.991 6.084a7.821 7.821 0 0 0-5.535 5.014l-1.273 3.616a2.729 2.729 0 0 0 2.635 3.632l72.815-1.537a4.544 4.544 0 0 0 4.437-4.913l-1.887-23.283-8.98 2.985a14.93 14.93 0 0 1-12.217-1.269l-4.323-2.517a7.928 7.928 0 0 0-9.558 1.207z" fill="#171c23" data-name="Path 1549"/>
    </g>
    <g transform="translate(767.5 168.66)" data-name="Group 144">
     <rect transform="rotate(180 114.75 41.535)" width="195" height="176.07" rx="5" fill="#fff" data-name="Rectangle 57"/>
     <g transform="translate(24.981,17.697)" data-name="Group 143">
      <g transform="translate(11,3.149)" fill="#cfcfcf" data-name="Group 142">
       <path transform="translate(-371.48 -186.65)" d="m402.24 228.03h81.856a3.419 3.419 0 0 0 3.416-3.42 3.416 3.416 0 0 0-3.416-3.416h-81.856a3.416 3.416 0 0 0-3.416 3.416 3.419 3.419 0 0 0 3.416 3.42z" data-name="Path 1551"/>
       <path transform="translate(-371.48 -221.65)" d="m402.24 228.03h81.856a3.419 3.419 0 0 0 3.416-3.42 3.416 3.416 0 0 0-3.416-3.416h-81.856a3.416 3.416 0 0 0-3.416 3.416 3.419 3.419 0 0 0 3.416 3.42z" data-name="Path 1559"/>
       <path transform="translate(-371.48 -239.65)" d="m402.24 228.03h81.856a3.419 3.419 0 0 0 3.416-3.42 3.416 3.416 0 0 0-3.416-3.416h-81.856a3.416 3.416 0 0 0-3.416 3.416 3.419 3.419 0 0 0 3.416 3.42z" data-name="Path 1562"/>
       <path transform="translate(-371.48 -257.65)" d="m402.24 228.03h81.856a3.419 3.419 0 0 0 3.416-3.42 3.416 3.416 0 0 0-3.416-3.416h-81.856a3.416 3.416 0 0 0-3.416 3.416 3.419 3.419 0 0 0 3.416 3.42z" data-name="Path 1563"/>
       <path transform="translate(-371.48 -204.65)" d="m402.24 228.03h81.856a3.419 3.419 0 0 0 3.416-3.42 3.416 3.416 0 0 0-3.416-3.416h-81.856a3.416 3.416 0 0 0-3.416 3.416 3.419 3.419 0 0 0 3.416 3.42z" data-name="Path 1560"/>
      </g>
      <path transform="translate(136.64 -33.04)" d="m0.834 0h41.534a0.834 0.834 0 0 1 0.832 0.834v75.586a0.834 0.834 0 0 1-0.834 0.834h-41.531a0.835 0.835 0 0 1-0.835-0.834v-75.586a0.834 0.834 0 0 1 0.834-0.834z" fill="#0fd40a" data-name="Rectangle 62"/>
     </g>
     <path transform="rotate(180 114.75 -21.965)" d="m0 0h195v45.984a3.086 3.086 0 0 1-3.086 3.086h-188.83a3.086 3.086 0 0 1-3.086-3.086z" fill="#b4b4b4" data-name="Rectangle 63"/>
    </g>
   </g>
  </g>
  <g id="Plant_Pot_Green" transform="matrix(-.914 -.407 .407 -.914 491.01 938.57)" data-name="Plant Pot Green">
   <path transform="translate(56.691,53.727)" d="m1.327 9.744c-6.87 10.531 14.03 23.743 37.343 15.373 0 0-2.085-10.994-8.285-18.8-5.285-6.654-19.43-11.317-29.058 3.427z" fill="url(#linear-gradient-5)" data-name="Path 1357"/>
   <path transform="translate(41.06,63.413)" d="m3.312 4.428c-10.252 7.282 4.365 27.232 29.124 27.979 0 0 2.085-10.994-0.823-20.527-2.487-8.133-13.945-17.648-28.301-7.452z" fill="url(#linear-gradient-6)" data-name="Path 1358"/>
   <path transform="translate(29.557,69.587)" d="m6.284 0.31c-11.249 1.731-7.523 23.8 12.2 34.453 0 0 6.142-8.048 7.66-16.943 1.296-7.584-4.109-19.935-19.86-17.51z" fill="url(#linear-gradient-7)" data-name="Path 1359"/>
   <path transform="translate(22.347,74.068)" d="m10.288 0.317c-9.769-3.031-15.448 16.257-3.707 32.628 0 0 8.129-4.076 12.853-10.663 4.033-5.618 4.529-17.719-9.146-21.965z" fill="url(#linear-gradient-8)" data-name="Path 1360"/>
   <path transform="translate(25.45 105.33)" d="m8.084 24.578c-31.445 32.344 33.044 93.249 120.9 79.825 0 0 0.213-40.142-16.238-71.885-14.033-27.087-60.62-53.232-104.66-7.94z" fill="url(#linear-gradient-9)" data-name="Path 1361"/>
   <path transform="translate(13.04,25.533)" d="m129.34 178.28a76.228 76.228 0 0 1-26.343-10.715 61.391 61.391 0 0 1-5.958-3.783c-1.915-1.371-3.963-2.5-5.75-4.057l-5.414-4.516-2.691-2.251-2.468-2.53a191.49 191.49 0 0 1-18.6-21.1l-8.3-11.434-7.339-12.157c-1.215-2.024-2.6-3.953-3.693-6.062l-3.268-6.341-6.6-12.663-11.668-26.263c-3.438-8.975-7.244-17.865-10.427-27-3.381-9.089-6.379-18.313-10.133-27.413l-0.686 0.156 7.268 28.277c2.6 9.377 5.93 18.541 8.857 27.823 3.22 9.183 7.221 18.087 10.8 27.147l6.525 13.08 3.277 6.54c1.1 2.175 2.487 4.185 3.722 6.289l7.717 12.427 8.776 11.708a161.86 161.86 0 0 0 20.2 21.123l2.714 2.449 2.944 2.181 5.9 4.336c1.939 1.485 4.161 2.553 6.223 3.849a57.864 57.864 0 0 0 6.421 3.509c8.705 4.4 18.158 7.538 28 8.091z" fill="url(#linear-gradient-10)" data-name="Path 1362"/>
   <path transform="translate(23.468 155.6)" d="m50.855 0.034c34.293-1.778 36.808 65.701-14.947 109.27 0 0-23.09-20.021-33.01-45.357-8.469-21.625-0.067-61.417 47.957-63.909z" fill="url(#linear-gradient-11)" data-name="Path 1363"/>
   <path transform="translate(20.97,21.949)" d="m41.527 233.32c2.87-9.7 4.171-19.733 5.471-29.753 0.454-5.031 0.865-10.067 1.017-15.118 0.284-5.05 0.383-10.1 0.35-15.16-0.085-20.239-2.506-40.4-5.844-60.352-1.041-4.946-2.246-9.859-3.367-14.791l-1.735-7.381-2.062-7.3-4.162-14.567c-1.57-4.8-3.32-9.542-5.083-14.271l-2.62-7.1-2.955-6.965-5.987-13.871c-2.029-4.6-4.606-8.966-6.88-13.448-2.308-4.464-4.719-8.876-7.183-13.245l-0.487 0.232c3.963 9.178 8.233 18.233 11.94 27.516l5.32 14.025 2.629 7.027 2.289 7.136 4.587 14.281 3.886 14.483 1.934 7.244 1.6 7.325c1.026 4.89 2.147 9.76 3.1 14.664a418.97 418.97 0 0 1 6.927 59.515c0.742 19.95 0.26 40.08-3.2 59.761z" fill="url(#linear-gradient-12)" data-name="Path 1364"/>
   <path transform="translate(91.956 152.53)" d="m13.44 29.087c-47.34 41.783 36.16 133.68 160.2 124.32 0 0 4.587-56-14.98-102.06-16.688-39.299-78.921-80.77-145.22-22.257z" fill="url(#linear-gradient-13)" data-name="Path 1365"/>
   <path transform="translate(25.046,20.006)" d="m224.5 276.5a340.54 340.54 0 0 1-37.3-25.748c-5.92-4.658-11.954-9.122-17.576-14.129l-8.563-7.306-8.2-7.727-8.171-7.712-7.906-7.987-7.911-7.963c-2.643-2.648-5.012-5.561-7.537-8.327-4.875-5.674-10.3-10.857-14.886-16.782l-14.166-17.414c-4.577-5.916-8.928-12.011-13.405-18.007-2.2-3.031-4.521-5.977-6.611-9.084l-6.147-9.405c-4.114-6.261-8.417-12.422-12.394-18.782-3.7-6.526-7.58-12.952-11.5-19.383l-5.854-9.665-5.216-10.02-10.464-20.08c-7.074-13.382-12.787-27.403-19.903-40.974l-0.79 0.279 8.195 21.284 4.09 10.644c1.353 3.551 2.681 7.117 4.374 10.526l9.58 20.7 4.8 10.346 5.461 10.021 10.923 20.035c3.873 6.54 8.077 12.89 12.1 19.34l6.1 9.646c2.1 3.173 4.426 6.19 6.63 9.292 4.492 6.138 8.857 12.375 13.448 18.437a486.56 486.56 0 0 0 62.905 65.97c23.09 19.756 47.986 37.711 75.573 50.748z" fill="url(#linear-gradient-14)" data-name="Path 1366"/>
   <path transform="translate(110.02 78.642)" d="m3.934 38.741c-22.584 39.574 55.866 82.851 138.39 47.542 0 0-9.935-39.314-34.032-66.2-20.56-22.945-72.726-36.753-104.36 18.658z" fill="url(#linear-gradient-15)" data-name="Path 1367"/>
   <path transform="translate(27.297,19.017)" d="m211.87 143.21a188.11 188.11 0 0 1-31.592-8.228l-7.7-2.587-7.561-2.979c-5.069-1.868-9.939-4.256-14.829-6.535a331.44 331.44 0 0 1-55.536-33.011l-13.013-9.641c-4.421-3.116-8.313-6.9-12.5-10.327-4.048-3.58-8.4-6.833-12.157-10.753-3.835-3.826-7.817-7.509-11.831-11.174-4.112-3.573-7.729-7.637-11.493-11.573l-11.264-11.853c-7.424-8.011-14.29-16.518-21.898-24.547l-0.492 0.35c6.653 8.724 13.136 17.591 19.931 26.211l10.769 12.455c3.613 4.138 7.079 8.4 11.06 12.2 7.749 7.779 15.291 15.784 23.75 22.811 4.194 3.542 8.086 7.452 12.531 10.7l13.075 10.026a306.98 306.98 0 0 0 57.226 32.453c20.234 8.436 41.5 15.033 63.51 16.6z" fill="url(#linear-gradient-16)" data-name="Path 1368"/>
   <g data-name="Group 76">
    <path d="m50.259 0.457-47.272 21.426a5.094 5.094 0 0 0-2.747 6.18l18.323 57.747a5.091 5.091 0 0 0 6.956 3.09l60.3-27.336a5.088 5.088 0 0 0 2.251-7.273l-31.351-51.834a5.089 5.089 0 0 0-6.46-2z" fill="url(#linear-gradient-17)" data-name="Path 1373"/>
    <path transform="translate(12.51,47.633)" d="m74.5 0.3-72.527 32.878a3.367 3.367 0 0 0-1.849 3.968l2.8 9.959a3.361 3.361 0 0 0 4.62 2.151l75.37-34.169a3.36 3.36 0 0 0 1.428-4.894l-5.647-8.669a3.361 3.361 0 0 0-4.195-1.224z" fill="url(#linear-gradient-18)" data-name="Path 1374"/>
   </g>
  </g>
 </g>
</svg>
