<?xml version="1.0" encoding="utf-8"?>
<!-- Generator: Adobe Illustrator 23.0.3, SVG Export Plug-In . SVG Version: 6.00 Build 0)  -->
<svg version="1.1" id="content" xmlns="http://www.w3.org/2000/svg" xmlns:xlink="http://www.w3.org/1999/xlink" x="0px" y="0px"
	 viewBox="0 0 1920 1235" style="enable-background:new 0 0 1920 1235;" xml:space="preserve">
<style type="text/css">
	.st0{fill:url(#SVGID_1_);}
	.st1{fill:url(#SVGID_2_);}
	.st2{fill:#62EF5F;}
	.st3{fill:url(#SVGID_3_);}
	.st4{fill:#0F1238;}
	.st5{fill:url(#SVGID_4_);}
	.st6{fill:#0B7A75;}
	.st7{fill:#FFFFFF;}
	.st8{fill:#0FD40A;}
	.st9{fill:#C1FFAD;}
	.st10{fill:#ED1E45;}
	.st11{fill:#E0BF89;}
	.st12{fill:#B21239;}
	.st13{fill:url(#SVGID_5_);}
	.st14{fill:url(#SVGID_6_);}
	.st15{fill:#F4E9D4;}
	.st16{fill:url(#SVGID_7_);}
	.st17{fill:#59B279;}
	.st18{fill:url(#SVGID_8_);}
	.st19{fill:#E2D1B3;}
	.st20{fill:none;}
	.st21{fill:url(#SVGID_9_);}
	.st22{fill:url(#SVGID_10_);}
	.st23{fill:url(#SVGID_11_);}
	.st24{fill:none;stroke:#0F1238;stroke-miterlimit:10;}
	.st25{fill:#28397F;}
</style>
<linearGradient id="SVGID_1_" gradientUnits="userSpaceOnUse" x1="668.4601" y1="1194.8202" x2="1614.6571" y2="248.6233">
	<stop  offset="4.289012e-07" style="stop-color:#28397F"/>
	<stop  offset="3.295889e-02" style="stop-color:#27377C"/>
	<stop  offset="0.4425" style="stop-color:#1A2357"/>
	<stop  offset="0.7741" style="stop-color:#121740"/>
	<stop  offset="0.9841" style="stop-color:#0F1238"/>
</linearGradient>
<path class="st0" d="M967,300.9C775.8,495.8,370,492.5,484.8,917.2C588,1299,1004.5,1329.5,1243,1107.3c3,1.4,223.8,39,245.5,7.7
	c214.1-309.1,112.4-860.9-55.8-1047C1145.4-249.9,1095.3,170.2,967,300.9z"/>
<g>
	<linearGradient id="SVGID_2_" gradientUnits="userSpaceOnUse" x1="722.499" y1="1053.9674" x2="1796.2971" y2="-19.8308">
		<stop  offset="5.045896e-08" style="stop-color:#0FD40A"/>
		<stop  offset="0.332" style="stop-color:#11D30C"/>
		<stop  offset="0.5062" style="stop-color:#16D114"/>
		<stop  offset="0.6437" style="stop-color:#1FCD22"/>
		<stop  offset="0.762" style="stop-color:#2BC735"/>
		<stop  offset="0.868" style="stop-color:#3CBF4E"/>
		<stop  offset="0.9638" style="stop-color:#50B66C"/>
		<stop  offset="1" style="stop-color:#59B279"/>
	</linearGradient>
	<path class="st1" d="M1506.5,893.8c219-415.3,23.6-983.1,23.6-983.1s-246.8,0.6-318.7,6.6c-72,6-109.6,154.7-109.6,154.7
		c138.2,106.7,228.3,282,228.3,480.1c0,325.1-242.5,588.6-541.7,588.6c-78.4,0-152.9-18.1-220.2-50.7
		c-117.8,39.9,154.9,209,413.6,158.4c186.3-36.5,323.6-109.9,416.3-201.2l0,0c0,0,0.1-0.1,0.1-0.1
		C1446,999.9,1481.9,947.9,1506.5,893.8z"/>
</g>
<g>
	<path class="st2" d="M509.4,313.4c0,0-23.8-13.5-45.9,12.4c-22.1,25.9-88.4,125.1-88.4,125.1s-12.1,19.4-0.9,41.6
		s63.6-62.3,63.6-62.3l66-98.8L509.4,313.4z"/>
	<linearGradient id="SVGID_3_" gradientUnits="userSpaceOnUse" x1="430.7652" y1="364.6064" x2="628.779" y2="562.6201">
		<stop  offset="4.289012e-07" style="stop-color:#28397F"/>
		<stop  offset="0.9841" style="stop-color:#0F1238"/>
	</linearGradient>
	<path class="st3" d="M689.9,441.5l-122.3,182c-2.3,3.4-6.8,4.3-10.2,2l-65-69.5l-103.6-43.7c-16.9-11.3-21.4-34.2-10-51.1
		l89.4-133.2c11.3-16.9,34.2-21.4,51.1-10l91.3,81l77.3,32.2C691.3,433.6,692.2,438.1,689.9,441.5z"/>
</g>
<path class="st4" d="M1093.1,615.3c0-154.9-125.6-280.5-280.5-280.5S532.1,460.4,532.1,615.3c0,153.6,123.4,278.3,276.4,280.4
	l22.3,59.3l108.4-2.9l-16.5-78.8C1022.9,830.5,1093.1,731.1,1093.1,615.3z"/>
<linearGradient id="SVGID_4_" gradientUnits="userSpaceOnUse" x1="606.498" y1="409.1514" x2="991.8634" y2="794.5168">
	<stop  offset="7.064254e-08" style="stop-color:#C1FFAD"/>
	<stop  offset="0.1104" style="stop-color:#B8FDA5"/>
	<stop  offset="0.2874" style="stop-color:#A1F790"/>
	<stop  offset="0.509" style="stop-color:#7BEE6D"/>
	<stop  offset="0.7638" style="stop-color:#46E13C"/>
	<stop  offset="1" style="stop-color:#0FD40A"/>
</linearGradient>
<circle class="st5" cx="803.7" cy="606.3" r="280.5"/>
<g transform="translate(2592.214 -691.374) rotate(124)">
	<path class="st4" d="M2210.8,728.3l-119.5-103.9c-3-2.6-3.3-7.1-0.7-10l62.5-71.9c2.6-3,7.1-3.3,10-0.7l119.5,103.9
		c3,2.6,3.3,7.1,0.7,10l-62.5,71.9C2218.2,730.6,2213.7,730.9,2210.8,728.3z"/>
	<path class="st6" d="M2209.7,733.7l-119.5-103.9c-3-2.6-3.3-7.1-0.7-10l62.5-71.9c2.6-3,7.1-3.3,10-0.7l119.5,103.9
		c3,2.6,3.3,7.1,0.7,10l-62.5,71.9C2217.2,736,2212.7,736.3,2209.7,733.7z"/>
	<g transform="translate(1603.312 629.124)">
		<path class="st7" d="M613,93l-3.2-2.8c-0.6-0.5-0.7-1.4-0.1-2l2.8-3.2c0.5-0.6,1.4-0.7,2-0.1l3.2,2.8c0.6,0.5,0.7,1.4,0.1,2
			l-2.8,3.2C614.5,93.4,613.6,93.5,613,93z"/>
		<path class="st7" d="M620,84.9l-3.2-2.8c-0.6-0.5-0.7-1.4-0.1-2l2.8-3.2c0.5-0.6,1.4-0.7,2-0.1l3.2,2.8c0.6,0.5,0.7,1.4,0.1,2
			l-2.8,3.2C621.5,85.3,620.6,85.4,620,84.9z"/>
		<path class="st7" d="M627.1,76.8l-3.2-2.8c-0.6-0.5-0.7-1.4-0.1-2l2.8-3.2c0.5-0.6,1.4-0.7,2-0.1l3.2,2.8c0.6,0.5,0.7,1.4,0.1,2
			l-2.8,3.2C628.6,77.3,627.7,77.3,627.1,76.8z"/>
		<path class="st7" d="M634.1,68.7l-3.2-2.8c-0.6-0.5-0.7-1.4-0.1-2l2.8-3.2c0.5-0.6,1.4-0.7,2-0.1l3.2,2.8c0.6,0.5,0.7,1.4,0.1,2
			l-2.8,3.2C635.6,69.2,634.7,69.2,634.1,68.7z"/>
		<path class="st7" d="M641.1,60.6l-11.3-9.8c-0.6-0.5-0.7-1.4-0.1-2l2.8-3.2c0.5-0.6,1.4-0.7,2-0.1l11.3,9.8c0.6,0.5,0.7,1.4,0.1,2
			l-2.8,3.2C642.6,61.1,641.7,61.2,641.1,60.6z"/>
		<path class="st7" d="M648.2,52.6l-3.2-2.8c-0.6-0.5-0.7-1.4-0.1-2l2.8-3.2c0.5-0.6,1.4-0.7,2-0.1l3.2,2.8c0.6,0.5,0.7,1.4,0.1,2
			l-2.8,3.2C649.7,53,648.8,53.1,648.2,52.6z"/>
		<path class="st7" d="M596.9,78.9l-3.2-2.8c-0.6-0.5-0.7-1.4-0.1-2l2.8-3.2c0.5-0.6,1.4-0.7,2-0.1l3.2,2.8c0.6,0.5,0.7,1.4,0.1,2
			l-2.8,3.2C598.3,79.4,597.4,79.4,596.9,78.9z"/>
		<path class="st7" d="M603.9,70.8l-3.2-2.8c-0.6-0.5-0.7-1.4-0.1-2l2.8-3.2c0.5-0.6,1.4-0.7,2-0.1l3.2,2.8c0.6,0.5,0.7,1.4,0.1,2
			l-2.8,3.2C605.4,71.3,604.5,71.4,603.9,70.8z"/>
		<path class="st7" d="M610.9,62.8l-3.2-2.8c-0.6-0.5-0.7-1.4-0.1-2l2.8-3.2c0.5-0.6,1.4-0.7,2-0.1l3.2,2.8c0.6,0.5,0.7,1.4,0.1,2
			l-2.8,3.2C612.4,63.2,611.5,63.3,610.9,62.8z"/>
		<path class="st7" d="M617.9,54.7l-3.2-2.8c-0.6-0.5-0.7-1.4-0.1-2l2.8-3.2c0.5-0.6,1.4-0.7,2-0.1l3.2,2.8c0.6,0.5,0.7,1.4,0.1,2
			l-2.8,3.2C619.4,55.1,618.5,55.2,617.9,54.7z"/>
		<path class="st7" d="M625,46.6l-3.2-2.8c-0.6-0.5-0.7-1.4-0.1-2l2.8-3.2c0.5-0.6,1.4-0.7,2-0.1l3.2,2.8c0.6,0.5,0.7,1.4,0.1,2
			l-2.8,3.2C626.5,47,625.6,47.1,625,46.6z"/>
		<path class="st7" d="M632,38.5l-3.2-2.8c-0.6-0.5-0.7-1.4-0.1-2l2.8-3.2c0.5-0.6,1.4-0.7,2-0.1l3.2,2.8c0.6,0.5,0.7,1.4,0.1,2
			l-2.8,3.2C633.5,39,632.6,39,632,38.5z"/>
		<path class="st7" d="M580.7,64.9l-3.2-2.8c-0.6-0.5-0.7-1.4-0.1-2l2.8-3.2c0.5-0.6,1.4-0.7,2-0.1l3.2,2.8c0.6,0.5,0.7,1.4,0.1,2
			l-2.8,3.2C582.2,65.3,581.3,65.4,580.7,64.9z"/>
		<path class="st7" d="M587.7,56.8l-3.2-2.8c-0.6-0.5-0.7-1.4-0.1-2l2.8-3.2c0.5-0.6,1.4-0.7,2-0.1l3.2,2.8c0.6,0.5,0.7,1.4,0.1,2
			l-2.8,3.2C589.2,57.2,588.3,57.3,587.7,56.8z"/>
		<path class="st7" d="M594.7,48.7l-3.2-2.8c-0.6-0.5-0.7-1.4-0.1-2l2.8-3.2c0.5-0.6,1.4-0.7,2-0.1l3.2,2.8c0.6,0.5,0.7,1.4,0.1,2
			l-2.8,3.2C596.2,49.2,595.3,49.2,594.7,48.7z"/>
		<path class="st7" d="M601.8,40.6l-3.2-2.8c-0.6-0.5-0.7-1.4-0.1-2l2.8-3.2c0.5-0.6,1.4-0.7,2-0.1l3.2,2.8c0.6,0.5,0.7,1.4,0.1,2
			l-2.8,3.2C603.3,41.1,602.4,41.1,601.8,40.6z"/>
		<path class="st7" d="M608.8,32.5l-3.2-2.8c-0.6-0.5-0.7-1.4-0.1-2l2.8-3.2c0.5-0.6,1.4-0.7,2-0.1l3.2,2.8c0.6,0.5,0.7,1.4,0.1,2
			l-2.8,3.2C610.3,33,609.4,33,608.8,32.5z"/>
		<path class="st7" d="M615.8,24.4l-3.2-2.8c-0.6-0.5-0.7-1.4-0.1-2l2.8-3.2c0.5-0.6,1.4-0.7,2-0.1l3.2,2.8c0.6,0.5,0.7,1.4,0.1,2
			l-2.8,3.2C617.3,24.9,616.4,25,615.8,24.4z"/>
		<path class="st7" d="M564.5,50.8l-3.2-2.8c-0.6-0.5-0.7-1.4-0.1-2l2.8-3.2c0.5-0.6,1.4-0.7,2-0.1l3.2,2.8c0.6,0.5,0.7,1.4,0.1,2
			l-2.8,3.2C566,51.3,565.1,51.3,564.5,50.8z"/>
		<path class="st7" d="M571.5,42.7l-3.2-2.8c-0.6-0.5-0.7-1.4-0.1-2l2.8-3.2c0.5-0.6,1.4-0.7,2-0.1l3.2,2.8c0.6,0.5,0.7,1.4,0.1,2
			l-2.8,3.2C573,43.2,572.1,43.2,571.5,42.7z"/>
		<path class="st7" d="M578.6,34.6l-3.2-2.8c-0.6-0.5-0.7-1.4-0.1-2l2.8-3.2c0.5-0.6,1.4-0.7,2-0.1l3.2,2.8c0.6,0.5,0.7,1.4,0.1,2
			l-2.8,3.2C580.1,35.1,579.2,35.2,578.6,34.6z"/>
		<path class="st7" d="M585.6,26.6l-3.2-2.8c-0.6-0.5-0.7-1.4-0.1-2l2.8-3.2c0.5-0.6,1.4-0.7,2-0.1l3.2,2.8c0.6,0.5,0.7,1.4,0.1,2
			l-2.8,3.2C587.1,27,586.2,27.1,585.6,26.6z"/>
		<path class="st7" d="M592.6,18.5l-3.2-2.8c-0.6-0.5-0.7-1.4-0.1-2l2.8-3.2c0.5-0.6,1.4-0.7,2-0.1l3.2,2.8c0.6,0.5,0.7,1.4,0.1,2
			l-2.8,3.2C594.1,18.9,593.2,19,592.6,18.5z"/>
		<path class="st7" d="M548.4,36.8l-3.2-2.8c-0.6-0.5-0.7-1.4-0.1-2l2.8-3.2c0.5-0.6,1.4-0.7,2-0.1l3.2,2.8c0.6,0.5,0.7,1.4,0.1,2
			l-2.8,3.2C549.8,37.2,548.9,37.3,548.4,36.8z"/>
		<path class="st7" d="M555.4,28.7l-3.2-2.8c-0.6-0.5-0.7-1.4-0.1-2l2.8-3.2c0.5-0.6,1.4-0.7,2-0.1l3.2,2.8c0.6,0.5,0.7,1.4,0.1,2
			l-2.8,3.2C556.9,29.1,556,29.2,555.4,28.7z"/>
		<path class="st7" d="M562.4,20.6l-3.2-2.8c-0.6-0.5-0.7-1.4-0.1-2l2.8-3.2c0.5-0.6,1.4-0.7,2-0.1l3.2,2.8c0.6,0.5,0.7,1.4,0.1,2
			l-2.8,3.2C563.9,21,563,21.1,562.4,20.6z"/>
		<path class="st7" d="M569.4,12.5l-3.2-2.8c-0.6-0.5-0.7-1.4-0.1-2l2.8-3.2c0.5-0.6,1.4-0.7,2-0.1l3.2,2.8c0.6,0.5,0.7,1.4,0.1,2
			l-2.8,3.2C570.9,13,570,13,569.4,12.5z"/>
		<path class="st7" d="M576.5,4.4l-3.2-2.8c-0.6-0.5-0.7-1.4-0.1-2l2.8-3.2c0.5-0.6,1.4-0.7,2-0.1l3.2,2.8c0.6,0.5,0.7,1.4,0.1,2
			l-2.8,3.2C578,4.9,577.1,4.9,576.5,4.4z"/>
		<path class="st7" d="M532.2,22.7l-3.2-2.8c-0.6-0.5-0.7-1.4-0.1-2l2.8-3.2c0.5-0.6,1.4-0.7,2-0.1l3.2,2.8c0.6,0.5,0.7,1.4,0.1,2
			l-2.8,3.2C533.7,23.2,532.8,23.2,532.2,22.7z"/>
		<path class="st7" d="M539.2,14.6l-3.2-2.8c-0.6-0.5-0.7-1.4-0.1-2l2.8-3.2c0.5-0.6,1.4-0.7,2-0.1l3.2,2.8c0.6,0.5,0.7,1.4,0.1,2
			l-2.8,3.2C540.7,15.1,539.8,15.1,539.2,14.6z"/>
		<path class="st7" d="M546.2,6.5L543,3.7c-0.6-0.5-0.7-1.4-0.1-2l2.8-3.2c0.5-0.6,1.4-0.7,2-0.1l3.2,2.8c0.6,0.5,0.7,1.4,0.1,2
			l-2.8,3.2C547.7,7,546.8,7.1,546.2,6.5z"/>
		<path class="st7" d="M553.3-1.6L550-4.4c-0.6-0.5-0.7-1.4-0.1-2l2.8-3.2c0.5-0.6,1.4-0.7,2-0.1l3.2,2.8c0.6,0.5,0.7,1.4,0.1,2
			l-2.8,3.2C554.8-1.1,553.9-1,553.3-1.6z"/>
		<path class="st7" d="M560.3-9.6l-3.2-2.8c-0.6-0.5-0.7-1.4-0.1-2l2.8-3.2c0.5-0.6,1.4-0.7,2-0.1L565-15c0.6,0.5,0.7,1.4,0.1,2
			l-2.8,3.2C561.8-9.2,560.9-9.1,560.3-9.6z"/>
		<path class="st7" d="M567.3-17.7l-3.2-2.8c-0.6-0.5-0.7-1.4-0.1-2l2.8-3.2c0.5-0.6,1.4-0.7,2-0.1l3.2,2.8c0.6,0.5,0.7,1.4,0.1,2
			l-2.8,3.2C568.8-17.3,567.9-17.2,567.3-17.7z"/>
		<path class="st7" d="M516,8.6l-3.2-2.8c-0.6-0.5-0.7-1.4-0.1-2l2.8-3.2c0.5-0.6,1.4-0.7,2-0.1l3.2,2.8c0.6,0.5,0.7,1.4,0.1,2
			L518,8.5C517.5,9.1,516.6,9.2,516,8.6z"/>
		<path class="st7" d="M523,0.6l-3.2-2.8c-0.6-0.5-0.7-1.4-0.1-2l2.8-3.2c0.5-0.6,1.4-0.7,2-0.1l3.2,2.8c0.6,0.5,0.7,1.4,0.1,2
			l-2.8,3.2C524.5,1,523.6,1.1,523,0.6z"/>
		<path class="st7" d="M530.1-7.5l-3.2-2.8c-0.6-0.5-0.7-1.4-0.1-2l2.8-3.2c0.5-0.6,1.4-0.7,2-0.1l3.2,2.8c0.6,0.5,0.7,1.4,0.1,2
			l-2.8,3.2C531.6-7.1,530.7-7,530.1-7.5z"/>
		<path class="st7" d="M537.1-15.6l-3.2-2.8c-0.6-0.5-0.7-1.4-0.1-2l2.8-3.2c0.5-0.6,1.4-0.7,2-0.1l3.2,2.8c0.6,0.5,0.7,1.4,0.1,2
			l-2.8,3.2C538.6-15.2,537.7-15.1,537.1-15.6z"/>
		<path class="st7" d="M544.1-23.7l-3.2-2.8c-0.6-0.5-0.7-1.4-0.1-2l2.8-3.2c0.5-0.6,1.4-0.7,2-0.1l3.2,2.8c0.6,0.5,0.7,1.4,0.1,2
			l-2.8,3.2C545.6-23.2,544.7-23.2,544.1-23.7z"/>
		<path class="st7" d="M551.2-31.8l-3.2-2.8c-0.6-0.5-0.7-1.4-0.1-2l2.8-3.2c0.5-0.6,1.4-0.7,2-0.1l3.2,2.8c0.6,0.5,0.7,1.4,0.1,2
			l-2.8,3.2C552.6-31.3,551.7-31.3,551.2-31.8z"/>
		<path class="st7" d="M604.9,85.9l-3.2-2.8c-0.6-0.5-0.7-1.4-0.1-2l2.8-3.2c0.5-0.6,1.4-0.7,2-0.1l3.2,2.8c0.6,0.5,0.7,1.4,0.1,2
			l-2.8,3.2C606.4,86.4,605.5,86.5,604.9,85.9z"/>
		<path class="st7" d="M612,77.9l-3.2-2.8c-0.6-0.5-0.7-1.4-0.1-2l2.8-3.2c0.5-0.6,1.4-0.7,2-0.1l3.2,2.8c0.6,0.5,0.7,1.4,0.1,2
			l-2.8,3.2C613.5,78.3,612.6,78.4,612,77.9z"/>
		<path class="st7" d="M619,69.8l-3.2-2.8c-0.6-0.5-0.7-1.4-0.1-2l2.8-3.2c0.5-0.6,1.4-0.7,2-0.1l3.2,2.8c0.6,0.5,0.7,1.4,0.1,2
			l-2.8,3.2C620.5,70.2,619.6,70.3,619,69.8z"/>
		<path class="st7" d="M626,61.7l-3.2-2.8c-0.6-0.5-0.7-1.4-0.1-2l2.8-3.2c0.5-0.6,1.4-0.7,2-0.1l3.2,2.8c0.6,0.5,0.7,1.4,0.1,2
			l-2.8,3.2C627.5,62.1,626.6,62.2,626,61.7z"/>
		<path class="st7" d="M640.1,45.5l-3.2-2.8c-0.6-0.5-0.7-1.4-0.1-2l2.8-3.2c0.5-0.6,1.4-0.7,2-0.1l3.2,2.8c0.6,0.5,0.7,1.4,0.1,2
			l-2.8,3.2C641.6,46,640.7,46,640.1,45.5z"/>
		<path class="st7" d="M588.8,71.9l-3.2-2.8c-0.6-0.5-0.7-1.4-0.1-2l2.8-3.2c0.5-0.6,1.4-0.7,2-0.1l3.2,2.8c0.6,0.5,0.7,1.4,0.1,2
			l-2.8,3.2C590.3,72.3,589.4,72.4,588.8,71.9z"/>
		<path class="st7" d="M595.8,63.8l-3.2-2.8c-0.6-0.5-0.7-1.4-0.1-2l2.8-3.2c0.5-0.6,1.4-0.7,2-0.1l3.2,2.8c0.6,0.5,0.7,1.4,0.1,2
			l-2.8,3.2C597.3,64.3,596.4,64.3,595.8,63.8z"/>
		<path class="st7" d="M602.8,55.7l-3.2-2.8c-0.6-0.5-0.7-1.4-0.1-2l2.8-3.2c0.5-0.6,1.4-0.7,2-0.1l3.2,2.8c0.6,0.5,0.7,1.4,0.1,2
			l-2.8,3.2C604.3,56.2,603.4,56.2,602.8,55.7z"/>
		<path class="st7" d="M609.9,47.6l-3.2-2.8c-0.6-0.5-0.7-1.4-0.1-2l2.8-3.2c0.5-0.6,1.4-0.7,2-0.1l3.2,2.8c0.6,0.5,0.7,1.4,0.1,2
			l-2.8,3.2C611.3,48.1,610.4,48.2,609.9,47.6z"/>
		<path class="st7" d="M616.9,39.6l-3.2-2.8c-0.6-0.5-0.7-1.4-0.1-2l2.8-3.2c0.5-0.6,1.4-0.7,2-0.1l3.2,2.8c0.6,0.5,0.7,1.4,0.1,2
			l-2.8,3.2C618.4,40,617.5,40.1,616.9,39.6z"/>
		<path class="st7" d="M623.9,31.5l-3.2-2.8c-0.6-0.5-0.7-1.4-0.1-2l2.8-3.2c0.5-0.6,1.4-0.7,2-0.1l3.2,2.8c0.6,0.5,0.7,1.4,0.1,2
			l-2.8,3.2C625.4,31.9,624.5,32,623.9,31.5z"/>
		<path class="st7" d="M572.6,57.8l-3.2-2.8c-0.6-0.5-0.7-1.4-0.1-2l2.8-3.2c0.5-0.6,1.4-0.7,2-0.1l3.2,2.8c0.6,0.5,0.7,1.4,0.1,2
			l-2.8,3.2C574.1,58.3,573.2,58.4,572.6,57.8z"/>
		<path class="st7" d="M579.6,49.8l-3.2-2.8c-0.6-0.5-0.7-1.4-0.1-2l2.8-3.2c0.5-0.6,1.4-0.7,2-0.1l3.2,2.8c0.6,0.5,0.7,1.4,0.1,2
			l-2.8,3.2C581.1,50.2,580.2,50.3,579.6,49.8z"/>
		<path class="st7" d="M586.7,41.7l-3.2-2.8c-0.6-0.5-0.7-1.4-0.1-2l2.8-3.2c0.5-0.6,1.4-0.7,2-0.1l3.2,2.8c0.6,0.5,0.7,1.4,0.1,2
			l-2.8,3.2C588.2,42.1,587.3,42.2,586.7,41.7z"/>
		<path class="st7" d="M593.7,33.6l-3.2-2.8c-0.6-0.5-0.7-1.4-0.1-2l2.8-3.2c0.5-0.6,1.4-0.7,2-0.1l3.2,2.8c0.6,0.5,0.7,1.4,0.1,2
			l-2.8,3.2C595.2,34,594.3,34.1,593.7,33.6z"/>
		<path class="st7" d="M600.7,25.5l-3.2-2.8c-0.6-0.5-0.7-1.4-0.1-2l2.8-3.2c0.5-0.6,1.4-0.7,2-0.1l3.2,2.8c0.6,0.5,0.7,1.4,0.1,2
			l-2.8,3.2C602.2,26,601.3,26,600.7,25.5z"/>
		<path class="st7" d="M556.4,43.8l-3.2-2.8c-0.6-0.5-0.7-1.4-0.1-2l2.8-3.2c0.5-0.6,1.4-0.7,2-0.1l3.2,2.8c0.6,0.5,0.7,1.4,0.1,2
			l-2.8,3.2C557.9,44.2,557,44.3,556.4,43.8z"/>
		<path class="st7" d="M563.5,35.7l-3.2-2.8c-0.6-0.5-0.7-1.4-0.1-2l2.8-3.2c0.5-0.6,1.4-0.7,2-0.1l3.2,2.8c0.6,0.5,0.7,1.4,0.1,2
			l-2.8,3.2C565,36.2,564.1,36.2,563.5,35.7z"/>
		<path class="st7" d="M570.5,27.6l-3.2-2.8c-0.6-0.5-0.7-1.4-0.1-2l2.8-3.2c0.5-0.6,1.4-0.7,2-0.1l3.2,2.8c0.6,0.5,0.7,1.4,0.1,2
			l-2.8,3.2C572,28.1,571.1,28.1,570.5,27.6z"/>
		<path class="st7" d="M577.5,19.5l-3.2-2.8c-0.6-0.5-0.7-1.4-0.1-2l2.8-3.2c0.5-0.6,1.4-0.7,2-0.1l3.2,2.8c0.6,0.5,0.7,1.4,0.1,2
			l-2.8,3.2C579,20,578.1,20,577.5,19.5z"/>
		<path class="st7" d="M584.5,11.4l-3.2-2.8c-0.6-0.5-0.7-1.4-0.1-2l2.8-3.2c0.5-0.6,1.4-0.7,2-0.1l3.2,2.8c0.6,0.5,0.7,1.4,0.1,2
			l-2.8,3.2C586,11.9,585.1,12,584.5,11.4z"/>
		<path class="st7" d="M607.7,17.4l-35.6-30.9c-0.6-0.5-0.7-1.4-0.1-2l2.8-3.2c0.5-0.6,1.4-0.7,2-0.1L612.4,12
			c0.6,0.5,0.7,1.4,0.1,2l-2.8,3.2C609.2,17.9,608.3,17.9,607.7,17.4z"/>
		<path class="st7" d="M614.8,9.3l-35.6-30.9c-0.6-0.5-0.7-1.4-0.1-2l15.3-17.6c0.5-0.6,1.4-0.7,2-0.1l35.6,30.9
			c0.6,0.5,0.7,1.4,0.1,2L616.8,9.2C616.3,9.8,615.4,9.9,614.8,9.3z"/>
		<path class="st7" d="M540.3,29.7l-3.2-2.8c-0.6-0.5-0.7-1.4-0.1-2l2.8-3.2c0.5-0.6,1.4-0.7,2-0.1l3.2,2.8c0.6,0.5,0.7,1.4,0.1,2
			l-2.8,3.2C541.8,30.2,540.9,30.2,540.3,29.7z"/>
		<path class="st7" d="M547.3,21.6l-3.2-2.8c-0.6-0.5-0.7-1.4-0.1-2l2.8-3.2c0.5-0.6,1.4-0.7,2-0.1l3.2,2.8c0.6,0.5,0.7,1.4,0.1,2
			l-2.8,3.2C548.8,22.1,547.9,22.2,547.3,21.6z"/>
		<path class="st7" d="M554.3,13.6l-3.2-2.8c-0.6-0.5-0.7-1.4-0.1-2l2.8-3.2c0.5-0.6,1.4-0.7,2-0.1l3.2,2.8c0.6,0.5,0.7,1.4,0.1,2
			l-2.8,3.2C555.8,14,554.9,14.1,554.3,13.6z"/>
		<path class="st7" d="M561.3,5.5l-3.2-2.8c-0.6-0.5-0.7-1.4-0.1-2l2.8-3.2c0.5-0.6,1.4-0.7,2-0.1l3.2,2.8c0.6,0.5,0.7,1.4,0.1,2
			l-2.8,3.2C562.8,5.9,561.9,6,561.3,5.5z"/>
		<path class="st7" d="M568.4-2.6l-3.2-2.8c-0.6-0.5-0.7-1.4-0.1-2l2.8-3.2c0.5-0.6,1.4-0.7,2-0.1l3.2,2.8c0.6,0.5,0.7,1.4,0.1,2
			l-2.8,3.2C569.9-2.2,569-2.1,568.4-2.6z"/>
		<path class="st7" d="M524.1,15.7l-3.2-2.8c-0.6-0.5-0.7-1.4-0.1-2l2.8-3.2c0.5-0.6,1.4-0.7,2-0.1l3.2,2.8c0.6,0.5,0.7,1.4,0.1,2
			l-2.8,3.2C525.6,16.1,524.7,16.2,524.1,15.7z"/>
		<path class="st7" d="M531.1,7.6l-3.2-2.8c-0.6-0.5-0.7-1.4-0.1-2l2.8-3.2c0.5-0.6,1.4-0.7,2-0.1l3.2,2.8c0.6,0.5,0.7,1.4,0.1,2
			l-2.8,3.2C532.6,8,531.7,8.1,531.1,7.6z"/>
		<path class="st7" d="M538.2-0.5l-3.2-2.8c-0.6-0.5-0.7-1.4-0.1-2l2.8-3.2c0.5-0.6,1.4-0.7,2-0.1l3.2,2.8c0.6,0.5,0.7,1.4,0.1,2
			l-2.8,3.2C539.6,0,538.7,0,538.2-0.5z"/>
		<path class="st7" d="M545.2-8.6l-3.2-2.8c-0.6-0.5-0.7-1.4-0.1-2l2.8-3.2c0.5-0.6,1.4-0.7,2-0.1l3.2,2.8c0.6,0.5,0.7,1.4,0.1,2
			l-2.8,3.2C546.7-8.1,545.8-8.1,545.2-8.6z"/>
		<path class="st7" d="M552.2-16.7l-3.2-2.8c-0.6-0.5-0.7-1.4-0.1-2l2.8-3.2c0.5-0.6,1.4-0.7,2-0.1l3.2,2.8c0.6,0.5,0.7,1.4,0.1,2
			l-2.8,3.2C553.7-16.2,552.8-16.1,552.2-16.7z"/>
		<path class="st7" d="M559.2-24.7l-3.2-2.8c-0.6-0.5-0.7-1.4-0.1-2l2.8-3.2c0.5-0.6,1.4-0.7,2-0.1l3.2,2.8c0.6,0.5,0.7,1.4,0.1,2
			l-2.8,3.2C560.7-24.3,559.8-24.2,559.2-24.7z"/>
		<path class="st7" d="M507.9,1.6l-3.2-2.8c-0.6-0.5-0.7-1.4-0.1-2l2.8-3.2c0.5-0.6,1.4-0.7,2-0.1l3.2,2.8c0.6,0.5,0.7,1.4,0.1,2
			l-2.8,3.2C509.4,2.1,508.5,2.1,507.9,1.6z"/>
		<path class="st7" d="M515-6.5l-3.2-2.8c-0.6-0.5-0.7-1.4-0.1-2l2.8-3.2c0.5-0.6,1.4-0.7,2-0.1l3.2,2.8c0.6,0.5,0.7,1.4,0.1,2
			L517-6.6C516.5-6,515.6-5.9,515-6.5z"/>
		<path class="st7" d="M522-14.5l-3.2-2.8c-0.6-0.5-0.7-1.4-0.1-2l2.8-3.2c0.5-0.6,1.4-0.7,2-0.1l3.2,2.8c0.6,0.5,0.7,1.4,0.1,2
			l-2.8,3.2C523.5-14.1,522.6-14,522-14.5z"/>
		<path class="st7" d="M529-22.6l-3.2-2.8c-0.6-0.5-0.7-1.4-0.1-2l2.8-3.2c0.5-0.6,1.4-0.7,2-0.1l3.2,2.8c0.6,0.5,0.7,1.4,0.1,2
			l-2.8,3.2C530.5-22.2,529.6-22.1,529-22.6z"/>
		<path class="st7" d="M543.1-38.8l-3.2-2.8c-0.6-0.5-0.7-1.4-0.1-2l2.8-3.2c0.5-0.6,1.4-0.7,2-0.1l3.2,2.8c0.6,0.5,0.7,1.4,0.1,2
			l-2.8,3.2C544.6-38.3,543.7-38.3,543.1-38.8z"/>
		<path class="st7" d="M499.8-5.4l-3.2-2.8c-0.6-0.5-0.7-1.4-0.1-2l2.8-3.2c0.5-0.6,1.4-0.7,2-0.1l3.2,2.8c0.6,0.5,0.7,1.4,0.1,2
			l-2.8,3.2C501.3-5,500.4-4.9,499.8-5.4z"/>
		<path class="st7" d="M506.9-13.5l-3.2-2.8c-0.6-0.5-0.7-1.4-0.1-2l2.8-3.2c0.5-0.6,1.4-0.7,2-0.1l3.2,2.8c0.6,0.5,0.7,1.4,0.1,2
			l-2.8,3.2C508.4-13,507.5-13,506.9-13.5z"/>
		<path class="st7" d="M513.9-21.6l-3.2-2.8c-0.6-0.5-0.7-1.4-0.1-2l2.8-3.2c0.5-0.6,1.4-0.7,2-0.1l3.2,2.8c0.6,0.5,0.7,1.4,0.1,2
			l-2.8,3.2C515.4-21.1,514.5-21.1,513.9-21.6z"/>
		<path class="st7" d="M520.9-29.7l-3.2-2.8c-0.6-0.5-0.7-1.4-0.1-2l2.8-3.2c0.5-0.6,1.4-0.7,2-0.1l3.2,2.8c0.6,0.5,0.7,1.4,0.1,2
			l-2.8,3.2C522.4-29.2,521.5-29.1,520.9-29.7z"/>
		<path class="st7" d="M536-30.7l-11.3-9.8c-0.6-0.5-0.7-1.4-0.1-2l2.8-3.2c0.5-0.6,1.4-0.7,2-0.1l11.3,9.8c0.6,0.5,0.7,1.4,0.1,2
			l-2.8,3.2C537.5-30.3,536.6-30.2,536-30.7z"/>
		<path class="st7" d="M535-45.8l-3.2-2.8c-0.6-0.5-0.7-1.4-0.1-2l2.8-3.2c0.5-0.6,1.4-0.7,2-0.1l3.2,2.8c0.6,0.5,0.7,1.4,0.1,2
			L537-46C536.5-45.4,535.6-45.3,535-45.8z"/>
	</g>
	<path class="st4" d="M2180.7,785.8l-138.6-120.5c-2.5-2.2-2.7-5.9-0.6-8.4l0,0l39.4-27.2c2.2-2.5,5.9-2.7,8.4-0.6l0,0l121.3,105.4
		c2.5,2.2,2.7,5.9,0.6,8.4l0,0l-22.1,42.3C2187,787.7,2183.2,787.9,2180.7,785.8C2180.7,785.8,2180.7,785.8,2180.7,785.8z"/>
	<path class="st7" d="M2180.1,780.6l-132.8-115.4c-2.4-1.9-2.8-5.3-0.9-7.7l34.6-24c2.1-2.2,5.6-2.3,7.8-0.2l117.7,102.3
		c2.4,1.9,2.8,5.3,0.9,7.7l-19.5,37.1C2185.8,782.6,2182.3,782.7,2180.1,780.6z"/>
	<g>
		<polygon class="st8" points="2132.7,720.2 2129.8,724.3 2180.1,768 2182.7,763.6 		"/>
		<polygon class="st8" points="2135.6,716.2 2185.2,759.3 2187.8,754.9 2138.5,712.2 		"/>
		<polygon class="st8" points="2141.7,707.8 2190.5,750.3 2193.1,745.9 2144.6,703.8 		"/>
	</g>
</g>
<g>
	<path class="st4" d="M970.1,666.9c-1.5,8.1-8.5,14.2-16.9,14.2c-4.1,0-7.8-1.4-10.7-3.8c-0.4-0.4-0.7-0.9-1-1.4
		c-1.1,2.4-1.7,5.1-1.7,8c0,11,8.9,19.9,19.9,19.9s19.9-8.9,19.9-19.9C979.5,676.7,975.7,670.4,970.1,666.9z"/>
	<path class="st9" d="M941.4,656.8l-10.5-10.5v2.8v3.4v2.8l8,8C939.3,660.9,940.2,658.7,941.4,656.8z"/>
	<g>
		<path class="st7" d="M933.2,662.4v1.3C933.2,663.3,933.2,662.8,933.2,662.4L933.2,662.4z"/>
		<path class="st7" d="M973,662.4c0,0.4,0,0.9,0,1.3L973,662.4L973,662.4z"/>
		<path class="st7" d="M953.1,643.8c-11,0-19.9,8.9-19.9,19.9v13.7h0c0.2,10.8,9,19.6,19.9,19.6c10.9,0,19.7-8.7,19.9-19.6h0v-13.7
			C973,652.7,964.1,643.8,953.1,643.8z M953.1,681.1c-4.1,0-7.8-1.4-10.7-3.8c-2.4-3-3.8-6.8-3.8-11c0-9.6,7.7-17.4,17.2-17.4
			c4.1,0,7.8,1.4,10.7,3.8c2.4,3,3.8,6.8,3.8,11C970.4,673.3,962.7,681.1,953.1,681.1z"/>
	</g>
	<path class="st7" d="M945.4,652.5L935,642.1l-4.2,4.2l10.6,10.6C942.4,655.2,943.8,653.7,945.4,652.5z"/>
	<g>
		<path class="st9" d="M953.1,683.6c-2.7,0-5.3-0.5-7.6-1.5v13.3c2.4,1,4.9,1.5,7.6,1.5c10.9,0,19.7-8.7,19.9-19.5l0,0v-13.3h0
			C972.8,674.9,964,683.6,953.1,683.6z"/>
	</g>
	<path class="st4" d="M955.8,648.9c4.1,0,7.8,1.4,10.7,3.8c-3.2-3.9-8-6.5-13.4-6.5c-9.5,0-17.2,7.8-17.2,17.4
		c0,5.5,2.5,10.4,6.5,13.6c-2.4-3-3.8-6.8-3.8-11C938.6,656.7,946.3,648.9,955.8,648.9z"/>
</g>
<ellipse transform="matrix(0.8983 -0.4393 0.4393 0.8983 -358.2443 500.1511)" class="st10" cx="901.5" cy="1024.1" rx="16.9" ry="16.3"/>
<g>
	<path class="st7" d="M958.9,903.8c0,0-39.8,4.1-44,2.9l0.4,17.5l-0.4,9.5c-30,1-77.4,19.7-81.8,21.5l0-0.1l-0.2-0.2
		c0,0-0.1-0.3-0.2-0.3l-18.8-20.8l-36.2,21.5c12.2,25.3,24.6,38.5,33.1,45.3c0.1,0.1,0.2,0.2,0.3,0.3c2,2,4.6,3.9,7.5,5.5
		c8.6,4.9,19.3,7.8,20.6,8.1c1.8,0.3,40.6-1.1,59.5-5.8c18.9-4.7,62.9-28.6,62.9-28.6c6.2-4.4,8.4-10.8,9-16.4l0,0
		C970.5,963.5,974.4,938.9,958.9,903.8z"/>
	<path class="st11" d="M929.5,975.5c0,0,5.6-10.4-3-18.3c-8.6-7.9-4.6-3.6-4.6-3.6s-12.1-19.2-18.7-21.8c-6.5-2.6-12.7-2.5-12.7-2.5
		s-5.4-4.2-7.5-4.6c-2.1-0.4-6.3,4.9-6.9,5.7c-0.6,0.8-15.3,10.2-16.7,15.2c-1.4,5-7.1,20.2-6.4,25.7c0,0-4.6,7.5-2.7,11.4
		s2.8,5.9,5.9,8.2c0,0,1.7,13.6,4.2,16.7c2.5,3.1,22.6,19.9,40.7,10.7C919.3,1009.2,932.4,1003.4,929.5,975.5z"/>
	<path class="st8" d="M779,1046.1c0,0,8.8,15.1,59.3,8.8c50.6-6.3,147.8-32.4,163.2-44.7c15.4-12.3,15.4-12.3,15.4-12.3
		s-11.7,35.7-100.5,52C827.7,1066.3,801.3,1072.2,779,1046.1z"/>
	<path class="st10" d="M926.9,1016.2c-3.5-1.4-6.3-1.8-8.7-1.7c6.5-4.9,11.2-10.6,11.7-11.7c0.7-1.7-1.7-35-7.6-48.5
		c-1.9-4.3-3.4-7.1-4.9-8.7l0,0c-4.9-10-15.1-3.9-20.4,0.3c-10-3.1-28.5-6.8-40.5,2.5c-17.2,13.2,3.1,51.6,4.7,56.5
		c1.6,4.8,0.5,11.7,7.7,14.8c2.2,0.9,5.7,1.8,9.8,2.4c-2.4,1.1-4.7,2.7-6.1,5.2c0,0,3.8-1.3,8.1-1.4c-2.4,5.6-3.4,12.8-0.4,21.6
		c0,0,7.8-20.5,25-14.1c9.6,3.6,8.8-2.1,6.2-7.8C919.1,1024.3,938.5,1020.9,926.9,1016.2z M908.6,1020.2c0.1,0,0.2-0.1,0.3-0.1
		c-0.1,0.1-0.1,0.2-0.2,0.3C908.6,1020.4,908.6,1020.3,908.6,1020.2z"/>
	<path class="st12" d="M922.2,1003.3c4.3-6.3-0.6-46.1-13.9-47.3c-4.8-0.4-8.5,0.8-11.3,2.5c-6.4,0.1-33,1.6-33.9,18.8
		c-1,19.5,2.5,38.4,10.6,40c3.7,0.7,9.4,1.7,14.9,1.2c-1.8,2.9-3.3,7.3-0.9,12.2c4.4,8.9,11,14.1,18.8,12.6s14.7-9.8,13.5-18
		c-0.7-4.8-2.8-10.7-5.5-15C918,1007.9,920.8,1005.4,922.2,1003.3z"/>
	<path class="st11" d="M810.7,935.5C810.7,935.5,810.7,935.5,810.7,935.5l1.8-1l-22.7-42.4v0c-1.4-2.7-2.8-5.3-4.1-7.8
		c8.9-15.3,26.3-56,34.2-76.9c1.2-1.8,2.8-3.8,4.9-4.5c3.4-1.1,3.6,0.8,12.3-4.9s9.4-6.1,9.4-6.1s1.5-4.1-3.1-3.2
		c-4.6,0.9-8.5,4.4-8.9,3.7s0.8-3.6,4.7-7.1c3.9-3.5,7.5-5.9,7.8-7.1c0.3-1.2,0.3-4.3-1.4-5.3c-1.7-1-3.6-0.8-3.6-0.8
		s-1.6-4.1-6.9-2.7c-2.2,0.6-3.2,0.9-3.5,1c-0.7-0.7-4.2-3.4-10.4-0.3c0,0-5.3,1.4-7.7,4c-2.4,2.6-6.2,14.3-6.3,20.5
		c0,0.1,0,0.1,0,0.2c-3.8,4.5-6.7,11.8-18.2,28.2c-21.6,30.6-31.6,48.8-38.1,65.6c-1,2.7-1.1,5-0.3,6.8c1.4,5,8.7,29.4,28.1,59
		L810.7,935.5z"/>
	<path class="st11" d="M856.5,722.5c1.8,0.4,6.6-0.2,6.6-0.2s4,3.1,4.1,4.3c0.1,1.2,0.9,7.1,0.9,7.1s-2.9,1-4.2-0.1
		c-1.3-1-2.1-6.9-4.6-7.8s-1.8,9.2-1.8,9.2s3,4.4,4.9,6c2,1.5,10.2,4.7,13.9,5.4c3.7,0.7,6.3,2.8,7.5,6.8s13.1,51.6,24.8,77.7
		c0,0,4,54.3,6.6,75.9c5.5,0.9,43.7-2.9,43.7-2.9c1.1,2.4,2,4.8,2.9,7.1c-5.7-25.2-14.4-60.5-22.4-78c0,0-10.8-38.2-35.5-76.4
		c0,0-8.7-16.3-9.9-21.5c-1.3-5.2-1-8.3-9.7-14.9c-8.6-6.7-9.3-7.2-9.3-7.2s-2.5-0.9-4.6,1.8c0,0-2.6-1.5-4.5,2.4
		c0,0-3.7-0.7-7.6,1.6c-3.9,2.3-3.9,2.3-3.9,2.3S854.6,722.1,856.5,722.5z"/>
</g>
<g>
	<path class="st7" d="M1115.3,317.5c-13-20.4-58.6-62.8-58.6-62.8c-3.2-2.3-6.6-3.7-9.9-4.4c-3.3-0.7-6.6-0.7-9.6-0.3l0,0
		c-5.6,0.2-62.5,11.7-62.5,11.7l2.8,41.3l0,0c0,0,0.1,0,0.2,0l0.4,7.3c0,0,0.6,4.1,2,4.1c0.9,0,31.3-5.6,50.1-9.1
		c0.5,4.2,1.2,7.9,1.8,10.3c0,0,0,0,0,0c1.4,4.7,2.7,9.4,3.7,14c3.3,7.1,7.5,13.8,11.7,20.1c4.9,7.2,10.4,14.1,16.1,20.7l22.6-5.5
		l40.4-26.2C1122.8,330.6,1118.9,323.2,1115.3,317.5z"/>
	<linearGradient id="SVGID_5_" gradientUnits="userSpaceOnUse" x1="924.6357" y1="439.7733" x2="924.6357" y2="439.7733">
		<stop  offset="4.289012e-07" style="stop-color:#273282"/>
		<stop  offset="0.9841" style="stop-color:#0F1238"/>
	</linearGradient>
	<path class="st13" d="M924.6,439.8"/>
	<linearGradient id="SVGID_6_" gradientUnits="userSpaceOnUse" x1="870.922" y1="485.415" x2="1010.6849" y2="485.415">
		<stop  offset="4.289012e-07" style="stop-color:#273282"/>
		<stop  offset="0.9841" style="stop-color:#0F1238"/>
	</linearGradient>
	<polygon class="st14" points="956.7,416.9 1010.7,477.3 924.9,553.9 870.9,493.5 	"/>
	
		<rect x="899.5" y="426.1" transform="matrix(-0.6664 -0.7456 0.7456 -0.6664 1205.9088 1506.72)" class="st7" width="81" height="115"/>
	
		<rect x="896.4" y="414.9" transform="matrix(-0.7071 -0.7071 0.7071 -0.7071 1266.1736 1469.2651)" class="st4" width="82" height="115"/>
	
		<rect x="895.2" y="413.9" transform="matrix(-0.7071 -0.7071 0.7071 -0.7071 1264.885 1466.7314)" class="st7" width="82" height="115"/>
	<path class="st4" d="M925.7,459.2c0.2,0.9,0.7,3,2,5.4c0.1,0.3,0.6,0.3,0.7,0c0.5-0.8,1.2-2.5,1.9-5.4c0.1-0.3-0.1-0.5-0.4-0.5
		h-3.8C925.9,458.7,925.7,459,925.7,459.2z"/>
	<path class="st15" d="M1071.6,300.2c0,0-12-2.1-16.9,8.9s-2,5.7-2,5.7s-14.8,18.1-15.2,25.4c-0.4,7.3,1.7,13.3,1.7,13.3
		s-2.3,6.6-2,8.8c0.3,2.2,6.9,4.5,7.8,4.9c0.9,0.3,15,11.6,20.4,11.3c5.4-0.2,22.1,0.3,27.2-2.2c0,0,8.8,2,12-1.1
		c3.2-3.1,4.8-4.7,6.1-8.5c0,0,12.7-6.2,15-9.6s12.1-28.6-2.9-43.4C1108,299.1,1098,288.2,1071.6,300.2z"/>
	<path class="st8" d="M1089.5,291.1c-0.7,0.1-1.3,0.3-1.9,0.6c-5.3,2.3-32,14.4-36.1,20.6c-4.5,6.9-0.5,10.4,2.4,11.4
		c0,0-10.2,8.1-5.6,19.2s23.3,25.1,20.1,35.6c0,0,8.5,7.2,32-5.8s25.5-12.3,29-19.5c3.6-7.2,7.9-25.8-0.1-36.1
		c-8.1-10.2-11.2-10.3-11.2-10.3S1113.4,287.7,1089.5,291.1z"/>
	<linearGradient id="SVGID_7_" gradientUnits="userSpaceOnUse" x1="1065.0813" y1="308.5375" x2="1202.6077" y2="308.5375">
		<stop  offset="7.064254e-08" style="stop-color:#C1FFAD"/>
		<stop  offset="0.1104" style="stop-color:#B8FDA5"/>
		<stop  offset="0.2874" style="stop-color:#A1F790"/>
		<stop  offset="0.509" style="stop-color:#7BEE6D"/>
		<stop  offset="0.7638" style="stop-color:#46E13C"/>
		<stop  offset="1" style="stop-color:#0FD40A"/>
	</linearGradient>
	<path class="st16" d="M1065.1,207.7c0,0,16.9-4.6,48.3,35.5c31.4,40.1,82,127.1,84.3,146.7c2.3,19.6,2.3,19.6,2.3,19.6
		s16.9-33.5-34.6-107.7S1099.3,205,1065.1,207.7z"/>
	<path class="st15" d="M931.1,437.8c0,0-1.3,6-0.1,8.5c1.2,2.6,2.8-3.1,2.8-3.1l1-6.6"/>
	<g>
		
			<rect x="902.8" y="473.7" transform="matrix(0.7071 -0.7071 0.7071 0.7071 -91.3859 786.1411)" class="st17" width="1" height="59.3"/>
	</g>
	<g>
		
			<rect x="907.1" y="469.3" transform="matrix(0.7071 -0.7071 0.7071 0.7071 -87.0002 787.9576)" class="st17" width="1" height="59.3"/>
	</g>
	<g>
		
			<rect x="911.7" y="464.8" transform="matrix(0.7071 -0.7071 0.7071 0.7071 -82.4549 789.8409)" class="st17" width="1" height="59.3"/>
	</g>
	<g>
		
			<rect x="920.2" y="456.3" transform="matrix(0.7071 -0.7071 0.7071 0.7071 -73.91 793.3804)" class="st17" width="1" height="59.3"/>
	</g>
	<g>
		
			<rect x="942.9" y="463.6" transform="matrix(0.7111 -0.7031 0.7031 0.7111 -65.3021 802.1654)" class="st17" width="1" height="33.9"/>
	</g>
	<linearGradient id="SVGID_8_" gradientUnits="userSpaceOnUse" x1="985.5866" y1="468.624" x2="1007.0348" y2="468.624">
		<stop  offset="4.289012e-07" style="stop-color:#273282"/>
		<stop  offset="0.9841" style="stop-color:#0F1238"/>
	</linearGradient>
	<path class="st18" d="M985.6,480c0,0,13.9-13.9,17.8-22.7l3.6,3.4L985.6,480z"/>
	<path class="st15" d="M965,391c0,0-0.9,6.3,0.8,10c1.7,3.8,12.5,13,19.1,15.9c6.6,2.9,26.8,41.9,28.3,44.7
		c1.5,2.8,9.3,12.6,15.8,14.5c6.4,1.9,19.3-5.5,22.6-10.1c3.2-4.6,0.8-18.4-4.2-23.6s-14.7-8.5-16.1-10.3
		c-1.3-1.8-23.6-18.1-24.9-19.9c-1.3-1.8-5.2-6.2-4.9-10.3c0.3-4.1,2.4-3.5,0.3-15.3c-2.1-11.8-2.3-12.8-2.3-12.8s-3.7-3.4-4.7,1.9
		c-1.1,5.3,0.9,11,0,11.2c-1,0.2-3.5-2.4-5.5-8.2c-2-5.7-2.9-10.7-4.1-11.5c-1.2-0.8-4.5-2.3-6.3-0.9c-1.8,1.3-2.4,3.5-2.4,3.5
		s-5.1-0.1-6,6.2c-0.9,6.3-0.3,4.1-0.3,4.1S964.4,382,965,391z"/>
	<path class="st15" d="M983.2,366.1c0,0,10.2,4.5,11.9,6.9c1.7,2.4-0.3,3.9-2.4,3.8c-2.1-0.1-9.2-2-9.2-2L983.2,366.1z"/>
	<path class="st15" d="M1082.6,425.9l-56.4,28.2l7.2,21.8c22.2,4.3,51.2-9.3,73.1-23.4l-21-27.9
		C1083.6,425.4,1082.6,425.9,1082.6,425.9z"/>
	<path class="st15" d="M1047.2,442.4c0,0,25-17.9,33.7-23.1l18.4,23.5l-38.8,21.8l-12.1-10.8l-1.2-10.4"/>
	<path class="st19" d="M1084.2,420.1"/>
	<path class="st7" d="M1143.8,383.9c-15.1,21.9-62.9,35.4-62.9,35.4l10.8,13.5l0,0l14.7,19.6c15.2-9.8,26.9-19.8,30.5-24.3
		c7.4-9.3,7.7-20.5,8.5-35.2C1145.5,392.4,1144.7,387.4,1143.8,383.9z"/>
	<path class="st8" d="M925.4,455.1l0.2,3.6c0,0,0,0,0,0c0,0.8,1.1,1.4,2.5,1.4c1.4,0,2.5-0.6,2.5-1.4c0-0.1,0-0.2,0-0.3l0.1-0.1
		l0.1-3.4c-0.5,0-1.1,0.1-1.8,0.2C927.6,455.3,926.5,455.2,925.4,455.1z"/>
	<path class="st15" d="M931.5,447.1c2.2,2.2,6.7-9,6.7-9s-0.9-6.3-2.3-8.9c-1.4-2.7-8.6-10.2-12.1-12.9c-3.6-2.7-5.4-6.2-4.5-11.2
		c0.8-4.8,11.6-59.5,12.8-93.7c11.6-0.2,29.5-0.6,46.1-1.2c-0.3-16.2-2.1-32.4-3.1-48.6c-13.8,2.8-27.3,6-38.3,9.2
		c-1,0.2-2.1,0.4-3.1,0.5c0,0-0.1,0-0.1,0c-8.7,2.9-17.2,6-25.2,10.5c-1.9,2.1-3.5,4.4-4.8,7c-0.1,0.1-0.1,0.2-0.2,0.4
		c-0.3,1.1-0.7,2.2-1.2,3.3c-0.7,1.5-1.4,3-2.2,4.5c-0.5,1.9-0.9,3.7-1.4,5.5c-1.8,17.1-4.2,51.1,0.7,88.6c0,0,1,21.9-0.3,28.2
		s-3.1,9.4,2.8,21c5.9,11.6,6.3,12.5,6.3,12.5s2.2,2.2,5.8,0.4c0,0,2,2.9,6-0.3c0,0,3.6,2.7,9,2.2c5.4-0.5,5.4-0.5,5.4-0.5
		s0.4-1.3-1.4-2.7c-1.8-1.3-7.2-3.1-7.2-3.1s-2.7-5.4-2.3-6.7c0.4-1.3,2.6-8.1,2.6-8.1s3.6,0.4,4.5,2.2
		C931.4,438.2,929.2,444.9,931.5,447.1z"/>
	<polygon class="st4" points="929,446.2 929,460.6 930.1,459.9 930.9,449.6 929.8,446.2 	"/>
	<path class="st4" d="M929,453.5c0,0,0.7,7.1-0.9,11.4c0,0,2.4-3.3,2.6-7.2c0.2-3.9,0.3-8.1,0.3-8.1L929,453.5z"/>
	<path class="st20" d="M924.6,439.8l0-1.2c-0.5,1.6-1,3.1-1.2,3.7c-0.3,0.9,0.8,3.6,1.6,5.3l-0.4-7.4V439.8z"/>
	<path class="st8" d="M929,421.1v-10.4c-1.3,0.3-3.1,0.2-5.5-1.1l0.3,6.7C925.1,417.4,927.1,419.1,929,421.1z"/>
	<path class="st8" d="M929,435c-1.3-0.7-3-0.9-3-0.9s-0.7,2.3-1.4,4.4l0,1.2v0.3l0.4,7.4c0.4,0.8,0.7,1.4,0.7,1.4s1.6,0.5,3.3,1.2
		l0,0V435z"/>
	<path class="st4" d="M929,410.1v0.6c1.1-0.3,1.8-0.8,2.1-1L929,410.1z"/>
	<path class="st4" d="M930.9,446.3c0-0.1-0.1-0.1-0.1-0.2l-0.1,4.7c0,0,0.1,0,0.1,0l0,0L930.9,446.3z"/>
	<path class="st4" d="M931.1,423.3l0-13.7l-0.1,0c-0.2,0.2-0.9,0.8-2.1,1v10.4C929.7,421.8,930.4,422.6,931.1,423.3z"/>
	<path class="st4" d="M930.5,436.4c-0.3-0.6-0.9-1-1.5-1.3v15.1l0,0c0.6,0.2,1.2,0.5,1.8,0.7l0.1-4.7
		C929.7,443.4,931.3,438,930.5,436.4z"/>
	<path class="st15" d="M930.7,455c3.5-0.3,3.5-0.3,3.5-0.3s0.4-1.3-1.4-2.7c-0.5-0.3-1.2-0.7-2-1.1l-0.1,0L930.7,455z"/>
	<path class="st8" d="M924.6,438.6c0.7-2.2,1.4-4.4,1.4-4.4s1.6,0.2,3,0.9v-14c-1.9-1.9-3.9-3.7-5.3-4.8l0.7,18.2L924.6,438.6z"/>
	<path class="st15" d="M929,450.1c-1.7-0.7-3.3-1.2-3.3-1.2s-0.3-0.6-0.7-1.4l0.1,1.7l0,0.4l0.3,5.5c1,0.2,2.2,0.2,3.4,0.1
		c0.7-0.1,1.3-0.1,1.8-0.2l0.1-4.1L929,450.1z"/>
	<path class="st15" d="M930.8,450.9l0.1,0C930.8,450.9,930.8,450.9,930.8,450.9L930.8,450.9z"/>
	<path class="st15" d="M931.1,435.2l-0.2,11c0,0.1,0.1,0.1,0.1,0.2l0.3-22.9c0,0-0.1-0.1-0.1-0.1L931.1,435.2z"/>
	<path class="st15" d="M930.8,450.9L930.8,450.9c-0.6-0.3-1.2-0.5-1.8-0.7L930.8,450.9z"/>
	<path class="st4" d="M931.1,423.3c-0.7-0.7-1.4-1.5-2.1-2.2v14c0.6,0.3,1.2,0.8,1.5,1.3c0.8,1.6-0.8,7,0.3,9.8l0.2-11L931.1,423.3z
		"/>
	<ellipse class="st4" cx="927.3" cy="409.6" rx="3.9" ry="2"/>
	<path class="st4" d="M1118,306.8c0,0-23.8-14.6-50.9,3.7c0,0-8.2,4.1-6.2,10c0.8,2.4,5.7,2.6,5.7,2.6s-9.1,13.3,1.6,22.2
		c12.5,10.5,5.4,29.3,2.4,32.8c0,0,5.9,1.6,13.7-0.9c14.4-4.7,29.9-12.5,41.3-22.4c0.4-0.3,0.7-0.7,0.9-1.1
		c1.7-3.1,8.3-17.1,2.3-32.5C1128.8,321.2,1125.2,311.4,1118,306.8z"/>
</g>
<g>
	<g id="XMLID_2_">
		<g id="XMLID_5_">
			<path class="st7" d="M637.2,657.6l-47.9-22.7l45.9,21.7L622,684.4L574.7,662l13.2-27.7l-2.1-1c-1.7-0.8-3.8-0.1-4.6,1.6
				L571,656.5c-0.8,1.7-0.1,3.8,1.6,4.6l51.4,24.3c1.7,0.8,3.8,0.1,4.6-1.6l10.2-21.5C639.6,660.5,638.9,658.4,637.2,657.6z"/>
			<g id="XMLID_14_">
				<path class="st8" d="M629.6,674.4l2.9-6.2c0.1-0.2,0.3-0.2,0.4-0.2l0,0c0.2,0.1,0.2,0.3,0.2,0.4l-2.9,6.2
					c-0.1,0.2-0.3,0.2-0.4,0.2l0,0C629.6,674.8,629.6,674.6,629.6,674.4z"/>
			</g>
			<g id="XMLID_13_">
				<path class="st8" d="M577.2,649.5l2.6-5.4c0.1-0.2,0.3-0.2,0.5-0.2l0,0c0.2,0.1,0.2,0.3,0.2,0.5l-2.6,5.4
					c-0.1,0.2-0.3,0.2-0.5,0.2l0,0C577.2,649.9,577.1,649.7,577.2,649.5z"/>
			</g>
			<g id="XMLID_10_">
				<path id="XMLID_12_" class="st8" d="M628.8,677.2c-0.3-0.2-0.5-0.6-0.3-0.9c0.1-0.2,0.2-0.3,0.4-0.4c0.2-0.1,0.4-0.1,0.5,0
					c0.2,0.1,0.3,0.2,0.4,0.4c0.1,0.2,0.1,0.4,0,0.5C629.6,677.2,629.2,677.3,628.8,677.2z"/>
				<path class="st8" d="M629.8,676.3c0.1,0.2,0.1,0.4,0,0.5c-0.2,0.3-0.6,0.5-0.9,0.3c0,0,0,0,0,0c-0.1-0.1-0.2-0.1-0.2-0.2
					c-0.1-0.1-0.1-0.3-0.1-0.5c0-0.1,0-0.1,0.1-0.2c0-0.1,0.1-0.2,0.2-0.2c0,0,0.1-0.1,0.2-0.1c0,0,0,0,0,0c0,0,0,0,0,0
					c0.1,0,0.2,0,0.3,0c0.1,0,0.2,0,0.3,0.1C629.6,676,629.7,676.1,629.8,676.3z"/>
				<path class="st8" d="M629.8,676.3c0.1,0.2,0.1,0.4,0,0.5c-0.2,0.3-0.6,0.5-0.9,0.3c0,0,0,0,0,0c-0.1-0.1-0.2-0.1-0.2-0.2
					c-0.1-0.1-0.1-0.3-0.1-0.5c0-0.1,0-0.1,0.1-0.2c0-0.1,0.1-0.2,0.2-0.2c0,0,0.1-0.1,0.2-0.1c0,0,0,0,0,0c0,0,0,0,0,0
					c0.1,0,0.2,0,0.3,0c0.1,0,0.2,0,0.3,0.1C629.6,676,629.7,676.1,629.8,676.3z"/>
				<path class="st8" d="M629.8,676.3c0.1,0.2,0.1,0.4,0,0.5c-0.2,0.3-0.6,0.5-0.9,0.3c0,0,0,0,0,0c-0.1-0.1-0.2-0.1-0.2-0.2
					c-0.1-0.1-0.1-0.3-0.1-0.5c0-0.1,0-0.1,0.1-0.2c0-0.1,0.1-0.2,0.2-0.2c0,0,0.1-0.1,0.1-0.1c0,0,0,0,0,0c0,0,0,0,0,0
					c0.1,0,0.2,0,0.3,0c0.1,0,0.2,0,0.3,0.1C629.6,676,629.7,676.1,629.8,676.3z"/>
				<path class="st8" d="M629.8,676.3c0.1,0.2,0.1,0.4,0,0.5c-0.2,0.3-0.6,0.5-0.9,0.3c0,0,0,0,0,0c-0.1-0.1-0.2-0.1-0.2-0.2
					c-0.1-0.1-0.1-0.3-0.1-0.5c0-0.1,0-0.1,0.1-0.2c0-0.1,0.1-0.2,0.1-0.2c0,0,0.1-0.1,0.1-0.1c0,0,0,0,0,0c0,0,0,0,0,0
					c0.1,0,0.2,0,0.3,0c0.1,0,0.2,0,0.3,0.1C629.6,676,629.7,676.1,629.8,676.3z"/>
				<path class="st8" d="M629.8,676.3c0.1,0.2,0.1,0.4,0,0.5c-0.2,0.3-0.5,0.5-0.9,0.3c0,0,0,0,0,0c-0.1-0.1-0.1-0.1-0.2-0.2
					c-0.1-0.1-0.1-0.3-0.1-0.5c0-0.1,0-0.1,0-0.2c0-0.1,0.1-0.2,0.1-0.2c0,0,0.1-0.1,0.1-0.1c0,0,0,0,0,0c0,0,0,0,0,0
					c0.1,0,0.2,0,0.3,0c0.1,0,0.2,0,0.3,0.1C629.6,676,629.7,676.1,629.8,676.3z"/>
				<path class="st8" d="M629.8,676.3c0.1,0.2,0.1,0.4,0,0.5c-0.2,0.3-0.5,0.5-0.9,0.3c0,0,0,0,0,0c-0.1-0.1-0.1-0.1-0.2-0.2
					c-0.1-0.1-0.1-0.3-0.1-0.5c0-0.1,0-0.1,0-0.2c0-0.1,0.1-0.2,0.1-0.2c0,0,0.1-0.1,0.1-0.1c0,0,0,0,0,0c0,0,0,0,0,0
					c0.1,0,0.2,0,0.3,0c0.1,0,0.2,0,0.3,0.1C629.6,676,629.7,676.1,629.8,676.3z"/>
				<path class="st8" d="M629.8,676.3c0.1,0.2,0.1,0.4,0,0.5c-0.2,0.3-0.5,0.5-0.8,0.3c0,0,0,0,0,0c-0.1-0.1-0.1-0.1-0.2-0.2
					c-0.1-0.1-0.1-0.3-0.1-0.5c0-0.1,0-0.1,0-0.2c0-0.1,0.1-0.2,0.1-0.2c0,0,0.1-0.1,0.1-0.1c0,0,0,0,0,0c0,0,0,0,0,0
					c0.1,0,0.2,0,0.2,0c0.1,0,0.2,0,0.3,0.1C629.6,676,629.7,676.1,629.8,676.3z"/>
				<path class="st8" d="M629.8,676.3c0.1,0.2,0.1,0.4,0,0.5c-0.2,0.3-0.5,0.5-0.8,0.3c0,0,0,0,0,0c-0.1-0.1-0.1-0.1-0.2-0.2
					c-0.1-0.1-0.1-0.3-0.1-0.5c0-0.1,0-0.1,0-0.2c0-0.1,0.1-0.2,0.1-0.2c0,0,0.1-0.1,0.1-0.1c0,0,0,0,0,0c0,0,0,0,0,0
					c0.1,0,0.2,0,0.2,0c0.1,0,0.2,0,0.3,0.1C629.6,676,629.7,676.1,629.8,676.3z"/>
				<path class="st8" d="M629.8,676.3c0.1,0.2,0.1,0.4,0,0.5c-0.1,0.3-0.5,0.5-0.8,0.3c0,0,0,0,0,0c-0.1-0.1-0.1-0.1-0.2-0.2
					c-0.1-0.1-0.1-0.3-0.1-0.5c0-0.1,0-0.1,0-0.2c0-0.1,0.1-0.2,0.1-0.2c0,0,0.1-0.1,0.1-0.1c0,0,0,0,0,0c0,0,0,0,0,0
					c0.1,0,0.2,0,0.2,0c0.1,0,0.2,0,0.3,0.1C629.6,676,629.7,676.1,629.8,676.3z"/>
				<path class="st8" d="M629.8,676.3c0.1,0.2,0.1,0.4,0,0.5c-0.1,0.3-0.5,0.5-0.8,0.3c0,0,0,0,0,0c-0.1-0.1-0.1-0.1-0.1-0.2
					c-0.1-0.1-0.1-0.3-0.1-0.5c0-0.1,0-0.1,0-0.2c0-0.1,0.1-0.2,0.1-0.2c0,0,0.1-0.1,0.1-0.1c0,0,0,0,0,0c0,0,0,0,0,0
					c0.1,0,0.2,0,0.2,0c0.1,0,0.2,0,0.3,0.1C629.6,676,629.7,676.1,629.8,676.3z"/>
				<path class="st8" d="M629.8,676.3c0.1,0.2,0.1,0.4,0,0.5c-0.1,0.3-0.5,0.4-0.8,0.3c0,0,0,0,0,0c-0.1-0.1-0.1-0.1-0.1-0.2
					c-0.1-0.1-0.1-0.3-0.1-0.5c0-0.1,0-0.1,0-0.2c0-0.1,0.1-0.2,0.1-0.2c0,0,0.1-0.1,0.1-0.1c0,0,0,0,0,0c0,0,0,0,0,0
					c0.1,0,0.2,0,0.2,0c0.1,0,0.2,0,0.3,0.1C629.6,676,629.7,676.1,629.8,676.3z"/>
				<path class="st8" d="M629.8,676.3c0.1,0.2,0.1,0.4,0,0.5c-0.1,0.3-0.5,0.4-0.8,0.3c0,0,0,0,0,0c0-0.1-0.1-0.1-0.1-0.2
					c-0.1-0.1-0.1-0.3-0.1-0.5c0-0.1,0-0.1,0-0.2c0-0.1,0-0.2,0.1-0.2c0,0,0.1-0.1,0.1-0.1c0,0,0,0,0,0c0,0,0,0,0,0
					c0.1,0,0.2,0,0.2,0c0.1,0,0.2,0,0.3,0.1C629.6,676,629.7,676.1,629.8,676.3z"/>
				<path class="st8" d="M629.8,676.3c0.1,0.2,0.1,0.4,0,0.5c-0.1,0.3-0.5,0.4-0.8,0.3c0,0,0,0,0,0c0-0.1-0.1-0.1-0.1-0.2
					c0-0.1-0.1-0.3-0.1-0.5c0-0.1,0-0.1,0-0.2c0-0.1,0-0.2,0.1-0.2c0,0,0-0.1,0.1-0.1c0,0,0,0,0,0c0,0,0,0,0,0c0.1,0,0.2,0,0.2,0
					c0.1,0,0.2,0,0.3,0.1C629.6,676,629.7,676.1,629.8,676.3z"/>
				<path class="st8" d="M629.8,676.3c0.1,0.2,0.1,0.4,0,0.5c-0.1,0.3-0.5,0.4-0.8,0.3c0,0,0,0,0,0c0-0.1-0.1-0.1-0.1-0.2
					c0-0.1-0.1-0.3-0.1-0.5c0-0.1,0-0.1,0-0.2c0-0.1,0-0.2,0.1-0.2c0,0,0-0.1,0.1-0.1c0,0,0,0,0,0c0,0,0,0,0,0c0.1,0,0.2,0,0.2,0
					c0.1,0,0.2,0.1,0.3,0.1C629.6,676,629.7,676.1,629.8,676.3z"/>
				<path class="st8" d="M629.8,676.3c0.1,0.2,0.1,0.4,0,0.5c-0.1,0.3-0.5,0.4-0.8,0.3c0,0,0,0,0,0c0-0.1-0.1-0.1-0.1-0.2
					c0-0.2-0.1-0.3-0.1-0.5c0-0.1,0-0.1,0-0.2c0-0.1,0-0.2,0.1-0.2c0,0,0-0.1,0.1-0.1c0,0,0,0,0,0c0,0,0,0,0,0c0.1,0,0.2,0,0.2,0
					c0.1,0,0.2,0.1,0.3,0.1C629.6,676,629.7,676.1,629.8,676.3z"/>
				<path class="st8" d="M629.8,676.3c0.1,0.2,0.1,0.4,0,0.5c-0.1,0.3-0.5,0.4-0.7,0.3c0,0,0,0,0,0c0-0.1-0.1-0.1-0.1-0.2
					c0-0.2-0.1-0.3-0.1-0.5c0-0.1,0-0.1,0-0.2c0-0.1,0-0.2,0-0.2c0,0,0-0.1,0-0.1c0,0,0,0,0,0c0,0,0,0,0,0c0.1,0,0.2,0,0.2,0
					c0.1,0,0.2,0.1,0.3,0.1C629.6,676,629.7,676.1,629.8,676.3z"/>
				<path class="st8" d="M629.8,676.3c0.1,0.2,0.1,0.4,0,0.5c-0.1,0.3-0.4,0.4-0.7,0.3c0,0,0,0,0,0c0-0.1,0-0.1-0.1-0.2
					c0-0.2-0.1-0.3-0.1-0.5c0-0.1,0-0.1,0-0.2c0-0.1,0-0.2,0-0.2c0,0,0-0.1,0-0.1c0,0,0,0,0,0c0,0,0,0,0,0c0.1,0,0.2,0,0.2,0
					c0.1,0,0.2,0.1,0.3,0.1C629.6,676,629.7,676.2,629.8,676.3z"/>
				<path class="st8" d="M629.8,676.3c0.1,0.2,0.1,0.4,0,0.5c-0.1,0.3-0.4,0.4-0.7,0.3c0,0,0,0,0,0c0-0.1,0-0.1-0.1-0.2
					c0-0.2,0-0.3,0-0.5c0-0.1,0-0.1,0-0.2c0-0.1,0-0.2,0-0.2c0,0,0-0.1,0-0.1c0,0,0,0,0,0c0,0,0,0,0,0c0.1,0,0.2,0,0.2,0
					c0.1,0,0.2,0.1,0.3,0.1C629.6,676,629.7,676.2,629.8,676.3z"/>
				<path class="st8" d="M629.8,676.3c0.1,0.2,0.1,0.4,0,0.5c-0.1,0.3-0.4,0.4-0.7,0.3c0,0,0,0,0,0c0-0.1,0-0.1,0-0.2
					c0-0.2,0-0.3,0-0.5c0-0.1,0-0.1,0-0.2c0-0.1,0-0.2,0-0.2c0,0,0-0.1,0-0.1c0,0,0,0,0,0c0,0,0,0,0,0c0.1,0,0.2,0,0.2,0
					c0.1,0,0.2,0.1,0.3,0.1C629.6,676,629.7,676.2,629.8,676.3z"/>
				<path class="st8" d="M629.8,676.3c0.1,0.2,0.1,0.4,0,0.5c-0.1,0.3-0.4,0.4-0.7,0.3c0,0,0,0,0,0c0-0.1,0-0.1,0-0.2
					c0-0.2,0-0.3,0-0.5c0-0.1,0-0.1,0-0.2c0-0.1,0-0.2,0-0.2c0,0,0-0.1,0-0.1c0,0,0,0,0,0c0,0,0,0,0,0c0.1,0,0.2,0,0.2,0
					c0.1,0,0.2,0.1,0.3,0.1C629.6,676,629.7,676.2,629.8,676.3z"/>
				<path class="st8" d="M629.8,676.3c0.1,0.2,0.1,0.4,0,0.5c-0.1,0.3-0.4,0.4-0.7,0.3c0,0,0,0,0,0c0-0.1,0-0.1,0-0.2
					c0-0.2,0-0.3,0-0.5c0-0.1,0-0.1,0-0.2c0-0.1,0-0.2,0-0.2c0,0,0-0.1,0-0.1c0,0,0,0,0,0c0,0,0,0,0,0c0.1,0,0.2,0,0.2,0
					c0.1,0,0.2,0.1,0.3,0.1C629.6,676,629.7,676.2,629.8,676.3z"/>
				<path class="st8" d="M629.8,676.3c0.1,0.2,0.1,0.4,0,0.5c-0.1,0.3-0.4,0.4-0.7,0.3c0,0,0,0,0,0c0-0.1,0-0.1,0-0.2
					c0-0.2,0-0.3,0-0.5c0-0.1,0-0.1,0-0.2c0-0.1,0-0.2,0-0.2c0,0,0-0.1,0-0.1c0,0,0,0,0,0c0,0,0,0,0,0c0.1,0,0.2,0,0.2,0
					c0.1,0,0.2,0.1,0.3,0.1C629.6,676.1,629.7,676.2,629.8,676.3z"/>
				<path class="st8" d="M629.8,676.3c0.1,0.2,0.1,0.4,0,0.5c-0.1,0.3-0.4,0.4-0.7,0.3c0,0,0,0,0,0c0-0.1,0-0.1,0-0.2
					c0-0.2,0-0.3,0-0.5c0-0.1,0-0.1,0-0.2c0-0.1,0-0.2,0-0.2c0,0,0-0.1,0-0.1c0,0,0,0,0,0c0,0,0,0,0,0c0.1,0,0.2,0,0.2,0
					c0.1,0,0.2,0.1,0.3,0.1C629.6,676.1,629.7,676.2,629.8,676.3z"/>
				<path class="st8" d="M629.8,676.3c0.1,0.2,0.1,0.4,0,0.5c-0.1,0.3-0.4,0.4-0.6,0.4c0,0,0,0,0,0c0-0.1,0-0.1,0-0.2
					c0-0.2,0-0.3,0-0.5c0-0.1,0-0.1,0-0.2c0-0.1,0-0.2,0-0.2c0,0,0-0.1,0-0.1c0,0,0,0,0,0c0,0,0,0,0,0c0.1,0,0.2,0,0.2,0
					c0.1,0,0.2,0.1,0.2,0.1C629.6,676.1,629.7,676.2,629.8,676.3z"/>
				<path class="st8" d="M629.8,676.3c0.1,0.2,0.1,0.4,0,0.5c-0.1,0.3-0.4,0.4-0.6,0.4c0,0,0,0,0,0c0-0.1,0-0.1,0-0.2
					c0-0.2,0-0.3,0-0.5c0-0.1,0-0.1,0-0.2c0-0.1,0-0.2,0-0.2c0,0,0-0.1,0-0.1c0,0,0,0,0,0c0,0,0,0,0,0c0.1,0,0.2,0,0.2,0
					c0.1,0,0.2,0.1,0.2,0.1C629.6,676.1,629.7,676.2,629.8,676.3z"/>
				<path class="st8" d="M629.8,676.3c0.1,0.2,0.1,0.4,0,0.5c-0.1,0.2-0.4,0.4-0.6,0.4c0,0,0,0,0,0c0-0.1,0-0.1,0-0.2
					c0-0.2,0-0.3,0-0.5c0-0.1,0-0.1,0-0.2c0-0.1,0-0.2,0-0.2c0,0,0-0.1,0-0.1c0,0,0,0,0,0c0,0,0,0,0,0c0.1,0,0.2,0,0.2,0
					c0.1,0,0.2,0.1,0.2,0.1C629.7,676.1,629.7,676.2,629.8,676.3z"/>
				<path class="st8" d="M629.8,676.3c0.1,0.2,0.1,0.4,0,0.5c-0.1,0.2-0.4,0.4-0.6,0.4c0,0,0,0,0,0c0-0.1,0-0.1,0-0.2
					c0-0.2,0-0.3,0-0.5c0-0.1,0-0.1,0-0.2c0-0.1,0-0.2,0-0.2c0,0,0-0.1,0-0.1c0,0,0,0,0,0c0,0,0,0,0,0c0.1,0,0.2,0,0.2,0
					c0.1,0,0.2,0.1,0.2,0.1C629.7,676.1,629.7,676.2,629.8,676.3z"/>
				<path class="st8" d="M629.8,676.3c0.1,0.2,0.1,0.4,0,0.5c-0.1,0.2-0.4,0.4-0.6,0.4c0,0,0,0,0,0c0-0.1,0-0.1,0.1-0.2
					c0-0.2,0-0.3,0-0.5c0-0.1,0-0.1,0-0.2c0-0.1,0-0.2-0.1-0.2c0,0,0-0.1,0-0.1c0,0,0,0,0,0c0,0,0,0,0,0c0.1,0,0.2,0,0.2,0
					c0.1,0,0.2,0.1,0.2,0.1C629.7,676.1,629.7,676.2,629.8,676.3z"/>
				<path class="st8" d="M629.8,676.3c0.1,0.2,0.1,0.4,0,0.5c-0.1,0.2-0.4,0.4-0.6,0.4c0,0,0,0,0,0c0-0.1,0.1-0.1,0.1-0.2
					c0-0.2,0-0.3,0-0.5c0-0.1,0-0.1,0-0.2c0-0.1,0-0.2-0.1-0.2c0,0,0-0.1-0.1-0.1c0,0,0,0,0,0c0,0,0,0,0,0c0.1,0,0.2,0,0.2,0
					c0.1,0,0.2,0.1,0.2,0.1C629.7,676.1,629.7,676.2,629.8,676.3z"/>
				<path class="st8" d="M629.8,676.3c0.1,0.2,0.1,0.4,0,0.5c-0.1,0.2-0.3,0.4-0.6,0.4c0,0,0,0,0,0c0-0.1,0.1-0.1,0.1-0.2
					c0-0.2,0-0.3,0-0.5c0-0.1,0-0.1,0-0.2c0-0.1,0-0.2-0.1-0.2c0,0,0-0.1-0.1-0.1c0,0,0,0,0,0c0,0,0,0,0,0c0.1,0,0.2,0,0.2,0
					c0.1,0,0.2,0.1,0.2,0.1C629.7,676.1,629.7,676.2,629.8,676.3z"/>
				<path class="st8" d="M629.8,676.3c0.1,0.2,0.1,0.4,0,0.5c-0.1,0.2-0.3,0.4-0.6,0.4c0,0,0,0,0,0c0-0.1,0.1-0.1,0.1-0.2
					c0-0.2,0-0.3,0-0.5c0-0.1,0-0.1,0-0.2c0-0.1,0-0.2-0.1-0.2c0,0,0-0.1-0.1-0.1c0,0,0,0,0,0c0,0,0,0,0,0c0.1,0,0.2,0,0.2,0
					c0.1,0,0.2,0.1,0.2,0.1C629.7,676.1,629.7,676.2,629.8,676.3z"/>
				<path class="st8" d="M629.8,676.3c0.1,0.2,0.1,0.4,0,0.5c-0.1,0.2-0.3,0.4-0.5,0.4c0,0,0,0,0,0c0-0.1,0.1-0.1,0.1-0.2
					c0-0.2,0-0.3,0-0.5c0-0.1,0-0.1,0-0.2c0-0.1-0.1-0.2-0.1-0.2c0,0,0-0.1-0.1-0.1c0,0,0,0,0,0c0,0,0,0,0,0c0.1,0,0.2,0,0.2,0
					c0.1,0,0.2,0.1,0.2,0.1C629.7,676.1,629.7,676.2,629.8,676.3z"/>
				<path class="st8" d="M629.8,676.3c0.1,0.2,0.1,0.4,0,0.5c-0.1,0.2-0.3,0.4-0.5,0.4c0,0,0,0,0,0c0-0.1,0.1-0.1,0.1-0.2
					c0-0.2,0-0.3,0-0.5c0-0.1,0-0.1,0-0.2c0-0.1-0.1-0.2-0.1-0.2c0,0-0.1-0.1-0.1-0.1c0,0,0,0,0,0c0,0,0,0,0,0c0.1,0,0.2,0,0.2,0
					c0.1,0,0.2,0.1,0.2,0.1C629.7,676.1,629.7,676.2,629.8,676.3z"/>
				<path class="st8" d="M629.8,676.3c0.1,0.2,0.1,0.4,0,0.5c-0.1,0.2-0.3,0.3-0.5,0.4c0,0,0,0,0,0c0-0.1,0.1-0.1,0.1-0.2
					c0-0.2,0.1-0.3,0-0.5c0-0.1,0-0.1,0-0.2c0-0.1-0.1-0.2-0.1-0.2c0,0-0.1-0.1-0.1-0.1c0,0,0,0,0,0c0,0,0,0,0,0c0.1,0,0.2,0,0.2,0
					c0.1,0,0.2,0.1,0.2,0.1C629.7,676.1,629.7,676.2,629.8,676.3z"/>
				<path class="st8" d="M629.8,676.3c0.1,0.2,0.1,0.4,0,0.5c-0.1,0.2-0.3,0.3-0.5,0.4c0,0,0,0,0,0c0.1-0.1,0.1-0.1,0.1-0.2
					c0.1-0.2,0.1-0.3,0-0.5c0-0.1,0-0.1,0-0.2c0-0.1-0.1-0.2-0.1-0.2c0,0-0.1-0.1-0.1-0.1c0,0,0,0,0,0c0,0,0,0,0,0
					c0.1,0,0.2,0,0.2,0c0.1,0,0.2,0.1,0.2,0.1C629.7,676.1,629.7,676.2,629.8,676.3z"/>
				<path class="st8" d="M629.8,676.3c0.1,0.2,0.1,0.4,0,0.5c-0.1,0.2-0.3,0.3-0.5,0.4c0,0,0,0,0,0c0.1-0.1,0.1-0.1,0.1-0.2
					c0.1-0.2,0.1-0.3,0-0.5c0-0.1,0-0.1-0.1-0.2c0-0.1-0.1-0.2-0.1-0.2c0,0-0.1-0.1-0.1-0.1c0,0,0,0,0,0c0,0,0,0,0,0
					c0.1,0,0.2,0,0.2,0c0.1,0,0.2,0.1,0.2,0.2C629.7,676.1,629.7,676.2,629.8,676.3z"/>
				<path class="st8" d="M629.8,676.3c0.1,0.2,0.1,0.4,0,0.5c-0.1,0.2-0.3,0.3-0.5,0.4c0,0,0,0,0,0c0.1-0.1,0.1-0.1,0.2-0.2
					c0.1-0.2,0.1-0.3,0-0.5c0-0.1,0-0.1-0.1-0.2c0-0.1-0.1-0.2-0.1-0.2c0,0-0.1-0.1-0.1-0.1c0,0,0,0,0,0c0,0,0,0,0,0
					c0.1,0,0.2,0,0.2,0c0.1,0,0.2,0.1,0.2,0.2C629.7,676.1,629.7,676.2,629.8,676.3z"/>
				<path class="st8" d="M629.8,676.3c0.1,0.2,0.1,0.4,0,0.5c-0.1,0.2-0.3,0.3-0.5,0.4c0,0,0,0,0,0c0.1-0.1,0.1-0.1,0.2-0.2
					c0.1-0.2,0.1-0.3,0.1-0.5c0-0.1,0-0.1-0.1-0.2c0-0.1-0.1-0.2-0.1-0.2c0,0-0.1-0.1-0.1-0.1c0,0,0,0,0,0c0,0,0,0,0,0
					c0.1,0,0.2,0,0.2,0.1c0.1,0,0.2,0.1,0.2,0.2C629.7,676.1,629.7,676.2,629.8,676.3z"/>
				<path class="st8" d="M629.8,676.3c0.1,0.2,0.1,0.4,0,0.5c-0.1,0.2-0.3,0.3-0.5,0.4c0,0,0,0,0,0c0.1-0.1,0.1-0.1,0.2-0.2
					c0.1-0.2,0.1-0.3,0.1-0.5c0-0.1,0-0.1-0.1-0.2c0-0.1-0.1-0.2-0.1-0.2c0,0-0.1-0.1-0.1-0.1c0,0,0,0,0,0c0,0,0,0,0,0
					c0.1,0,0.2,0,0.2,0.1c0.1,0,0.2,0.1,0.2,0.2C629.7,676.1,629.7,676.2,629.8,676.3z"/>
				<path class="st8" d="M629.8,676.3c0.1,0.2,0.1,0.4,0,0.5c-0.1,0.2-0.3,0.3-0.5,0.4c0,0,0,0,0,0c0.1-0.1,0.1-0.1,0.2-0.2
					c0.1-0.2,0.1-0.3,0.1-0.5c0-0.1,0-0.1-0.1-0.2c0-0.1-0.1-0.2-0.2-0.2c0,0-0.1-0.1-0.1-0.1c0,0,0,0,0,0c0,0,0,0,0,0
					c0.1,0,0.2,0,0.2,0.1c0.1,0,0.2,0.1,0.2,0.2C629.7,676.1,629.7,676.2,629.8,676.3z"/>
				<path class="st8" d="M629.8,676.3c0.1,0.2,0.1,0.4,0,0.5c-0.1,0.2-0.3,0.3-0.4,0.4c0,0,0,0,0,0c0.1-0.1,0.1-0.1,0.2-0.2
					c0.1-0.2,0.1-0.3,0.1-0.5c0-0.1,0-0.1-0.1-0.2c0-0.1-0.1-0.2-0.2-0.2c0,0-0.1-0.1-0.1-0.1c0,0,0,0,0,0c0,0,0,0,0,0
					c0.1,0,0.2,0,0.2,0.1c0.1,0,0.2,0.1,0.2,0.2C629.7,676.1,629.7,676.2,629.8,676.3z"/>
				<path class="st8" d="M629.8,676.3c0.1,0.2,0.1,0.4,0,0.5c-0.1,0.2-0.2,0.3-0.4,0.4c0,0,0,0,0,0c0.1-0.1,0.2-0.1,0.2-0.2
					c0.1-0.2,0.1-0.3,0.1-0.5c0-0.1,0-0.1-0.1-0.2c0-0.1-0.1-0.2-0.2-0.2c0,0-0.1-0.1-0.2-0.1c0,0,0,0,0,0c0,0,0,0,0,0
					c0.1,0,0.2,0,0.2,0.1c0.1,0,0.2,0.1,0.2,0.2C629.7,676.1,629.7,676.2,629.8,676.3z"/>
				<path id="XMLID_11_" class="st8" d="M629.2,675.8C629.2,675.8,629.2,675.8,629.2,675.8c0.1,0,0.1,0.1,0.2,0.1
					c0.1,0.1,0.2,0.3,0.3,0.5s0,0.3-0.1,0.5c-0.1,0.1-0.1,0.2-0.2,0.2c0,0,0,0,0,0c0.2-0.1,0.3-0.2,0.4-0.4c0.1-0.2,0.1-0.4,0-0.5
					c0-0.1-0.1-0.2-0.1-0.2s-0.1-0.1-0.2-0.2C629.3,675.9,629.3,675.8,629.2,675.8C629.2,675.8,629.2,675.8,629.2,675.8z"/>
			</g>
		</g>
	</g>
	<g>
		<path class="st4" d="M638.4,660.9l-47.9-22.7l45.9,21.7l-47.2-22.4l-0.4,0.9l0,0l-0.2,0.3l0.6-1.2l-2.1-1
			c-1.7-0.8-3.8-0.1-4.6,1.6l-10.2,21.5c-0.8,1.7-0.1,3.8,1.6,4.6l51.4,24.3c1.7,0.8,3.8,0.1,4.6-1.6l10.2-21.5
			C640.8,663.8,640.1,661.7,638.4,660.9z M588.3,639.3L588.3,639.3l-5.8,12.2l-6.5,13.8L588.3,639.3z"/>
		<g>
			<polygon class="st7" points="574.8,662 595.7,671.9 574.8,662 			"/>
			<path class="st7" d="M637.2,657.6l-47.9-22.7l45.9,21.7L622,684.4l-26.3-12.5l28.4,13.5c1.7,0.8,3.8,0.1,4.6-1.6l10.2-21.5
				C639.7,660.5,638.9,658.5,637.2,657.6z"/>
			<path class="st7" d="M585.9,633.3c-1.7-0.8-3.8-0.1-4.6,1.6l-10.2,21.5c-0.8,1.7-0.1,3.8,1.6,4.6l2.1,1l13.2-27.7L585.9,633.3z"
				/>
		</g>
		<g>
			<path class="st8" d="M633.1,668.1c-0.2-0.1-0.4,0-0.4,0.2l-2.9,6.2c-0.1,0.2,0,0.4,0.2,0.4c0.2,0.1,0.4,0,0.4-0.2l2.9-6.2
				C633.3,668.4,633.2,668.2,633.1,668.1z"/>
			<path class="st8" d="M580.3,644c-0.2-0.1-0.4,0-0.5,0.2l-2.6,5.4c-0.1,0.2,0,0.4,0.2,0.5c0.2,0.1,0.4,0,0.5-0.2l2.6-5.4
				C580.5,644.2,580.5,644,580.3,644z"/>
			<path class="st8" d="M629.7,676.1C629.7,676.1,629.7,676.1,629.7,676.1C629.7,676.1,629.7,676.1,629.7,676.1
				C629.7,676.1,629.7,676.1,629.7,676.1C629.7,676.1,629.7,676.1,629.7,676.1C629.7,676.1,629.7,676.1,629.7,676.1
				C629.7,676.1,629.7,676.1,629.7,676.1C629.7,676.1,629.7,676.1,629.7,676.1C629.7,676.1,629.7,676.1,629.7,676.1
				C629.7,676.1,629.7,676.1,629.7,676.1C629.7,676.1,629.7,676.1,629.7,676.1C629.7,676.1,629.7,676.1,629.7,676.1
				C629.7,676.1,629.7,676.1,629.7,676.1C629.7,676.1,629.7,676.1,629.7,676.1C629.7,676.1,629.7,676.1,629.7,676.1
				C629.7,676.1,629.7,676.1,629.7,676.1C629.7,676.1,629.7,676.1,629.7,676.1C629.7,676.1,629.7,676.1,629.7,676.1
				C629.7,676.1,629.7,676.1,629.7,676.1C629.7,676.1,629.7,676.1,629.7,676.1C629.7,676.1,629.7,676.1,629.7,676.1
				C629.7,676.1,629.7,676.1,629.7,676.1C629.7,676.1,629.7,676.1,629.7,676.1C629.7,676.1,629.7,676.1,629.7,676.1
				C629.7,676.1,629.7,676.1,629.7,676.1C629.7,676.1,629.7,676.1,629.7,676.1C629.7,676.1,629.7,676.1,629.7,676.1L629.7,676.1
				C629.7,676.1,629.7,676.1,629.7,676.1c-0.1-0.1-0.1-0.1-0.1-0.1l0,0l0,0c0,0,0,0,0,0l0,0l0,0c0,0,0,0,0,0h0l0,0c0,0,0,0,0,0
				c0,0,0,0,0,0l0,0c0,0,0,0,0,0c0,0,0,0,0,0l0,0c0,0,0,0,0,0c0,0,0,0,0,0l0,0c0,0,0,0,0,0c0,0,0,0,0,0l0,0c0,0,0,0,0,0c0,0,0,0,0,0
				l0,0c0,0,0,0,0,0c0,0,0,0,0,0v0c0,0,0,0,0,0c0,0,0,0,0,0l0,0c0,0,0,0,0,0c0,0,0,0,0,0l0,0c0,0,0,0,0,0l0,0c0,0,0,0,0,0
				c-0.1,0-0.2-0.1-0.2-0.1c0,0,0,0,0,0c0,0,0,0,0,0c0,0,0,0,0,0c-0.1,0-0.2,0-0.3,0c0,0,0,0,0,0c0,0,0,0,0,0c0,0,0,0,0,0
				c0,0,0,0-0.1,0c-0.1,0.1-0.2,0.2-0.3,0.3c-0.2,0.3,0,0.8,0.3,0.9c0.2,0.1,0.3,0.1,0.5,0v0c0,0,0,0,0,0c0,0,0,0,0,0c0,0,0,0,0,0
				c0,0,0,0,0,0c0,0,0,0,0,0c0,0,0,0,0,0v0c0,0,0,0,0,0h0c0,0,0,0,0,0c0,0,0,0,0,0c0,0,0,0,0,0s0,0,0,0c0,0,0,0,0,0s0,0,0,0
				c0,0,0,0,0,0c0,0,0,0,0,0c0,0,0,0,0,0c0,0,0,0,0,0c0,0,0,0,0,0c0,0,0,0,0,0c0,0,0,0,0,0c0,0,0,0,0,0c0,0,0,0,0,0c0,0,0,0,0,0
				s0,0,0,0c0,0,0,0,0,0c0,0,0,0,0,0c0,0,0,0,0,0s0,0,0,0c0,0,0,0,0,0c0,0,0,0,0,0s0,0,0,0c0,0,0,0,0,0c0,0,0,0,0,0c0,0,0,0,0,0
				s0,0,0,0c0,0,0,0,0,0c0,0,0,0,0,0c0,0,0,0,0,0c0,0,0,0,0,0c0,0,0,0,0,0s0,0,0,0c0,0,0,0,0,0c0,0,0,0,0,0c0,0,0,0,0,0l0,0
				c0,0,0,0,0,0c0,0,0,0,0,0c0,0,0,0,0,0c0,0,0,0,0,0c0,0,0,0,0,0c0,0,0,0,0,0c0,0,0,0,0,0c0,0,0,0,0,0c0,0,0,0,0,0c0,0,0,0,0,0
				c0,0,0,0,0,0c0,0,0,0,0,0c0,0,0,0,0,0c0,0,0,0,0,0c0,0,0,0,0,0c0,0,0,0,0,0c0,0,0,0,0,0c0,0,0,0,0,0c0,0,0,0,0,0c0,0,0,0,0,0
				s0,0,0,0c0,0,0,0,0,0c0,0,0,0,0,0c0,0,0,0,0,0s0,0,0,0c0,0,0,0,0,0c0,0,0,0,0,0c0,0,0,0,0,0c0,0,0,0,0,0c0,0,0,0,0,0c0,0,0,0,0,0
				c0,0,0,0,0,0c0,0,0,0,0,0c0,0,0,0,0,0c0,0,0,0,0,0c0,0,0,0,0,0c0,0,0.1-0.1,0.1-0.2c0.1-0.2,0.1-0.4,0-0.5
				C629.8,676.2,629.8,676.2,629.7,676.1z"/>
		</g>
		
			<rect x="589.6" y="633.2" transform="matrix(-0.4284 0.9036 -0.9036 -0.4284 1459.8864 395.1343)" class="st7" width="30.7" height="52.3"/>
		
			<linearGradient id="SVGID_9_" gradientUnits="userSpaceOnUse" x1="-5393.7119" y1="-5416.2891" x2="-5364.8511" y2="-5416.2891" gradientTransform="matrix(-0.4284 0.9036 -0.9036 -0.4284 -6593.5269 3200.1096)">
			<stop  offset="5.045896e-08" style="stop-color:#0FD40A"/>
			<stop  offset="0.2801" style="stop-color:#1EB92A"/>
			<stop  offset="0.7619" style="stop-color:#378F5C"/>
			<stop  offset="1" style="stop-color:#407F6F"/>
		</linearGradient>
		<polygon class="st21" points="575.1,661.3 587.5,635.2 634.7,657.6 622.4,683.6 		"/>
		
			<rect x="610.5" y="620.7" transform="matrix(-0.4284 0.9036 -0.9036 -0.4284 1457.0413 371.8119)" class="st4" width="0.9" height="52.3"/>
		
			<rect x="567.4" y="648.2" transform="matrix(-0.4284 0.9036 -0.9036 -0.4284 1416.8245 400.9008)" class="st4" width="28.4" height="0.8"/>
		
			<rect x="589.6" y="633.2" transform="matrix(-0.4284 0.9036 -0.9036 -0.4284 1459.8279 395.1415)" class="st7" width="30.7" height="52.3"/>
		
			<rect x="590.5" y="633.3" transform="matrix(-0.4284 0.9036 -0.9036 -0.4284 1459.8429 395.2649)" class="st17" width="28.9" height="52.3"/>
		<polygon class="st4" points="634.7,657.6 587.5,635.2 587.3,635.6 587.3,635.6 575.1,661.2 575.9,661.6 587.8,636.4 634.3,658.4 
					"/>
	</g>
	
		<rect x="641.6" y="462.1" transform="matrix(0.2908 -0.9568 0.9568 0.2908 -13.3597 1021.142)" class="st4" width="81" height="115"/>
	
		<rect x="640.8" y="459.8" transform="matrix(0.2908 -0.9568 0.9568 0.2908 -11.7484 1018.7418)" class="st7" width="81" height="115"/>
	<linearGradient id="SVGID_10_" gradientUnits="userSpaceOnUse" x1="606.7309" y1="519.4992" x2="740.3597" y2="519.4992">
		<stop  offset="4.289012e-07" style="stop-color:#273282"/>
		<stop  offset="0.9841" style="stop-color:#0F1238"/>
	</linearGradient>
	<polygon class="st22" points="740.4,497.5 716.8,575 606.7,541.5 630.3,464 	"/>
	
		<rect x="631.8" y="459.8" transform="matrix(0.2908 -0.9568 0.9568 0.2908 -18.131 1010.1309)" class="st7" width="81" height="115"/>
	<linearGradient id="SVGID_11_" gradientUnits="userSpaceOnUse" x1="601.2181" y1="517.4992" x2="734.847" y2="517.4992">
		<stop  offset="4.289012e-07" style="stop-color:#273282"/>
		<stop  offset="0.9841" style="stop-color:#0F1238"/>
	</linearGradient>
	<polygon class="st23" points="734.8,495.5 711.3,573 601.2,539.5 624.8,462 	"/>
	<g>
		
			<rect x="626.3" y="458.1" transform="matrix(-0.2942 0.9558 -0.9558 -0.2942 1355.8297 29.9582)" class="st7" width="81" height="115"/>
		<line class="st24" x1="723.7" y1="497" x2="703.4" y2="563"/>
		<line class="st24" x1="718.3" y1="495.3" x2="698" y2="561.3"/>
		<line class="st24" x1="713.5" y1="493.9" x2="693.2" y2="559.9"/>
		<line class="st24" x1="703.3" y1="490.7" x2="683" y2="556.7"/>
		<line class="st24" x1="698.9" y1="489.4" x2="678.6" y2="555.4"/>
		<line class="st24" x1="694.6" y1="488" x2="674.2" y2="554"/>
		<line class="st24" x1="681.4" y1="484" x2="661.1" y2="550"/>
		<line class="st24" x1="677" y1="482.6" x2="656.7" y2="548.6"/>
		<line class="st24" x1="672.7" y1="481.3" x2="652.3" y2="547.3"/>
		<line class="st24" x1="668.3" y1="480" x2="648" y2="545.9"/>
		<line class="st24" x1="663.9" y1="478.6" x2="643.6" y2="544.6"/>
		<line class="st24" x1="659.6" y1="477.3" x2="639.3" y2="543.3"/>
		<line class="st24" x1="650.9" y1="474.6" x2="630.6" y2="540.6"/>
		<line class="st24" x1="646.5" y1="473.3" x2="626.2" y2="539.2"/>
		<line class="st24" x1="642.2" y1="471.9" x2="621.9" y2="537.9"/>
		<line class="st24" x1="637.8" y1="470.6" x2="617.5" y2="536.6"/>
		<line class="st24" x1="633.5" y1="469.2" x2="613.1" y2="535.2"/>
		<line class="st24" x1="629.1" y1="467.9" x2="608.8" y2="533.9"/>
	</g>
	<path class="st11" d="M686.6,492.1C686.6,492.1,686.6,492.1,686.6,492.1c-0.1-1.2-0.8-6.7-2.4-11.9c-0.6-2.3-1.4-4.7-2.3-6.9
		c-0.8-2-0.9-5.3-0.5-6.2c0.3-0.9,0.8-2.8-0.8-5.1c-0.6-0.9-0.7-4-0.6-7.6c0.5-5.2,0.9-12.7,3.1-26c5.8-34.5,7-53.9,5.6-70.7
		c-0.4-4.3-3.2-6.6-7.3-7.4c0,0-0.1,0-0.1,0c-8.4-2.1-27.7-4.1-74.3,3.6c-28.4,4.7-31.8,6-40.2,8.7c-7.2,2.1-14.1,4.8-20.8,8.1
		c-5.9,4-1.6,17.2-0.8,21.8c2.6,13.5,11.2,22.4,19.3,20.5c31.3-7.6,64.5-16.9,86.1-22.2c1.2,21.3,5.5,52.5,7.8,67.3
		c0.2,5.1,0.4,9.7,0.2,11c-0.3,3.3-3,5.8-4.4,10.9c-1.4,5.1-1.8,15.8-1,16.8c0.4,0.5,2,1.3,3.6,1.9c0.3,3.7,0.4,10.4,0.6,12.3
		c0.3,2.7,0.9,11.9,1,13.1c0.1,1.2,0.1,5.4,2.8,5.5c0,0,0,0,0,0c0,0,0,0,0,0c0,0,0,0,0,0c0,0,0,0,0,0c2.7-0.1,2.7-4.3,2.7-5.5
		c0.1-1.2,0.7-16.5,0.4-18c-0.1-0.5-0.1-1.9-0.1-3.5c0.4,1.5,1.2,3.4,2.8,3.3c1.2-0.1,4-0.4,4.7-1.1c0.6-0.7,1.1-2.4,1.2-3.5
		c0.5,0.5,1.5,1.7,2.6,1.7c1.3,0.1,3.1-0.5,4.1-1.6c0.5-0.6,0.6-1.9,0.8-2.9c0.8,0.2,1.6,0.7,2.2,0.7c1.1,0,2.1-0.6,2.9-1.2
		c1.1-1,1-4.9,1-5.6C686.6,492.2,686.6,492.2,686.6,492.1C686.6,492.2,686.6,492.1,686.6,492.1C686.6,492.1,686.6,492.1,686.6,492.1
		z"/>
	<path class="st9" d="M548.6,418.3c3.8-2,26.8-5.5,35.8-6.8c16.3-4.2,30.6-8,30.6-8l-10.6-51.9c0,0-3.2,0.5-5,0.8
		c-32.6,5.3-36.5,6.9-46.2,10c-7.6,2.2-15,5-22.2,8.4c-2.2,0.8-4.3,1.7-6.4,2.7c-13.8,6.9-32.3,24.6-38.9,32.6l-17.4,21.1l26.1-3.5
		l33.3,18.6c0,0,3.6,6.3,7.5,13.8C541.2,450.8,548.6,418.3,548.6,418.3z"/>
	<path class="st11" d="M471.5,469.4c0,0,2.3,12,14.3,12.7c12,0.7,6-0.1,6-0.1s22.2,7.5,29.1,5.3s11.9-6.3,11.9-6.3s7-0.2,9-1.2
		s1.8-8,1.8-9c0-1,5.6-18.1,3.5-23.1s-7.5-20.8-11.6-24.7c0,0-1.2-9-5.2-10.9c-4-1.9-6.1-2.9-10.1-2.8c0,0-10.2-9.8-14.2-10.7
		c-4-0.9-31-1.3-39.6,17.9C457.7,435.7,451,448.9,471.5,469.4z"/>
	<path class="st6" d="M457.2,456.7c0,0,24.6,25.4,32.6,27.3c8,1.8,9.9-3.2,9.9-6.2c0,0,11.2,6.7,20-1.5c8.8-8.2,15.3-30.7,26.3-31.3
		c0,0,3.8-10.4-16.6-28c-20.4-17.5-20.5-19.5-28.5-20.4c-8-0.8-27,1.6-33.7,12.8s-5.7,14.1-5.7,14.1S444.7,435,457.2,456.7z"/>
	<path class="st25" d="M461,427.2c0,0-10.7,19.2,3.4,31.8c6.8,6.1,15.5,16.4,22.6,19.4c5.1,2.1,8.2,2.2,11-4.1c0,0,4.7,3.3,6.1,3.3
		c6.1,0,7.4-5.2,10.8-9.1C514.9,468.5,464,451.8,461,427.2z"/>
	<path class="st11" d="M624.9,604.3c5.2-3.1,9.3-6.7,7.7-9.9c-1.7-3.3-19.7,4.7-22.7,6c-1.9,0.8-3.4,1.6-4.5,2.4
		c-0.2,0-0.4,0.1-0.6,0.1c-19.8-4.6-68.3-14.5-83.7-13.8c-1.2,0.1-2.3,0.2-3.4,0.5c-4.5-9.1-11.1-32.5-20.2-58.6
		c-2.3-0.4-4.4-1.5-6.3-3c-7.3-6-15.4-11-22.8-17c-7.4-5.9-14.3-12.5-20.5-19.7c-0.3-0.4-0.6-0.8-0.9-1.2c-4.3,3.6-8.6,8.9-9,15
		c0.3,5.5,2.8,11.8,4.8,16.8c3.3,8.2,6.3,18.1,20.5,43.1c23.4,41,27.2,52.3,34.1,57.4c0.1,0.1,0.2,0.1,0.2,0.1
		c1.1,1.8,2.9,3.1,5.5,3.5c16.7,2.6,36.1,2.8,70.9-0.6c18-1.7,25.4-0.8,30.8-1.6c5.1,5.5,13.7,10,23.4,9.8
		c7.8-0.1,30.5-3.3,36.6-15.5C668.3,610.8,643.5,606.4,624.9,604.3z"/>
	<path class="st9" d="M501.7,524.4c-5.2-2.4-12.5-8-27.3-19.5c-18.8-14.5-24-39.4-25.5-50.1c-1.9,3.1-3.6,6.2-5,9.2
		c-7.6,16.1-9.1,30.8-6.3,42.2c0,0.1,0,0.3,0,0.4c0.3,6.3,3.2,13.5,5.5,19.3c3.6,9.8,7.7,19.4,12.4,28.8c3,6,6.6,12.7,11.2,20.7
		c13.8-6.4,44.3-21.2,45.2-21.8c-2.4-7.1-4.8-14.1-7.3-21.3C503.7,529.7,502.7,527,501.7,524.4z"/>
</g>
</svg>
