<svg id="Layer_1" data-name="Layer 1" xmlns="http://www.w3.org/2000/svg" viewBox="0 0 32 16">
  <rect class="cls-1" width="32" height="2"/>
  <rect class="cls-1" y="7" width="32" height="2"/>
  <rect class="cls-1" y="14" width="32" height="2"/>
</svg>
